ISO-10303-21;
HEADER;
/* Generated by software containing ST-Developer
 * from STEP Tools, Inc. (www.steptools.com) 
 */

FILE_DESCRIPTION(
/* description */ (''),
/* implementation_level */ '2;1');

FILE_NAME(
/* name */ 'touchbar_glass.step',
/* time_stamp */ '2023-12-24T10:33:51-05:00',
/* author */ (''),
/* organization */ (''),
/* preprocessor_version */ 'ST-DEVELOPER v20',
/* originating_system */ 'Autodesk Translation Framework v12.14.0.127',

/* authorisation */ '');

FILE_SCHEMA (('AUTOMOTIVE_DESIGN { 1 0 10303 214 3 1 1 }'));
ENDSEC;

DATA;
#10=MECHANICAL_DESIGN_GEOMETRIC_PRESENTATION_REPRESENTATION('',(#13),#319);
#11=SHAPE_REPRESENTATION_RELATIONSHIP('SRR','None',#326,#12);
#12=ADVANCED_BREP_SHAPE_REPRESENTATION('',(#14),#318);
#13=STYLED_ITEM('',(#336),#14);
#14=MANIFOLD_SOLID_BREP('Body1',#187);
#15=CYLINDRICAL_SURFACE('',#207,2.);
#16=CYLINDRICAL_SURFACE('',#212,2.);
#17=FACE_OUTER_BOUND('',#27,.T.);
#18=FACE_OUTER_BOUND('',#28,.T.);
#19=FACE_OUTER_BOUND('',#29,.T.);
#20=FACE_OUTER_BOUND('',#30,.T.);
#21=FACE_OUTER_BOUND('',#31,.T.);
#22=FACE_OUTER_BOUND('',#32,.T.);
#23=FACE_OUTER_BOUND('',#33,.T.);
#24=FACE_OUTER_BOUND('',#34,.T.);
#25=FACE_OUTER_BOUND('',#35,.T.);
#26=FACE_OUTER_BOUND('',#36,.T.);
#27=EDGE_LOOP('',(#121,#122,#123,#124,#125,#126));
#28=EDGE_LOOP('',(#127,#128,#129,#130));
#29=EDGE_LOOP('',(#131,#132,#133,#134));
#30=EDGE_LOOP('',(#135,#136,#137,#138,#139,#140));
#31=EDGE_LOOP('',(#141,#142,#143,#144));
#32=EDGE_LOOP('',(#145,#146,#147,#148));
#33=EDGE_LOOP('',(#149,#150,#151,#152));
#34=EDGE_LOOP('',(#153,#154,#155,#156,#157,#158));
#35=EDGE_LOOP('',(#159,#160,#161,#162));
#36=EDGE_LOOP('',(#163,#164,#165,#166,#167,#168));
#37=LINE('',#271,#57);
#38=LINE('',#275,#58);
#39=LINE('',#277,#59);
#40=LINE('',#278,#60);
#41=LINE('',#281,#61);
#42=LINE('',#283,#62);
#43=LINE('',#284,#63);
#44=LINE('',#287,#64);
#45=LINE('',#289,#65);
#46=LINE('',#290,#66);
#47=LINE('',#293,#67);
#48=LINE('',#295,#68);
#49=LINE('',#296,#69);
#50=LINE('',#299,#70);
#51=LINE('',#303,#71);
#52=LINE('',#304,#72);
#53=LINE('',#307,#73);
#54=LINE('',#308,#74);
#55=LINE('',#311,#75);
#56=LINE('',#312,#76);
#57=VECTOR('',#221,10.);
#58=VECTOR('',#224,10.);
#59=VECTOR('',#225,10.);
#60=VECTOR('',#226,10.);
#61=VECTOR('',#229,10.);
#62=VECTOR('',#230,10.);
#63=VECTOR('',#231,10.);
#64=VECTOR('',#234,10.);
#65=VECTOR('',#235,10.);
#66=VECTOR('',#236,10.);
#67=VECTOR('',#239,10.);
#68=VECTOR('',#240,10.);
#69=VECTOR('',#241,10.);
#70=VECTOR('',#244,10.);
#71=VECTOR('',#249,10.);
#72=VECTOR('',#250,10.);
#73=VECTOR('',#253,10.);
#74=VECTOR('',#254,10.);
#75=VECTOR('',#257,10.);
#76=VECTOR('',#258,10.);
#77=CIRCLE('',#202,2.);
#78=CIRCLE('',#203,2.);
#79=CIRCLE('',#208,2.);
#80=CIRCLE('',#213,2.);
#81=VERTEX_POINT('',#267);
#82=VERTEX_POINT('',#268);
#83=VERTEX_POINT('',#270);
#84=VERTEX_POINT('',#272);
#85=VERTEX_POINT('',#274);
#86=VERTEX_POINT('',#276);
#87=VERTEX_POINT('',#280);
#88=VERTEX_POINT('',#282);
#89=VERTEX_POINT('',#286);
#90=VERTEX_POINT('',#288);
#91=VERTEX_POINT('',#292);
#92=VERTEX_POINT('',#294);
#93=VERTEX_POINT('',#298);
#94=VERTEX_POINT('',#302);
#95=VERTEX_POINT('',#306);
#96=VERTEX_POINT('',#310);
#97=EDGE_CURVE('',#81,#82,#77,.T.);
#98=EDGE_CURVE('',#83,#81,#37,.T.);
#99=EDGE_CURVE('',#84,#83,#78,.T.);
#100=EDGE_CURVE('',#85,#84,#38,.T.);
#101=EDGE_CURVE('',#85,#86,#39,.T.);
#102=EDGE_CURVE('',#82,#86,#40,.T.);
#103=EDGE_CURVE('',#87,#85,#41,.T.);
#104=EDGE_CURVE('',#88,#87,#42,.T.);
#105=EDGE_CURVE('',#86,#88,#43,.T.);
#106=EDGE_CURVE('',#89,#87,#44,.T.);
#107=EDGE_CURVE('',#90,#89,#45,.T.);
#108=EDGE_CURVE('',#88,#90,#46,.T.);
#109=EDGE_CURVE('',#84,#91,#47,.T.);
#110=EDGE_CURVE('',#92,#91,#48,.T.);
#111=EDGE_CURVE('',#89,#92,#49,.T.);
#112=EDGE_CURVE('',#83,#93,#50,.T.);
#113=EDGE_CURVE('',#91,#93,#79,.T.);
#114=EDGE_CURVE('',#81,#94,#51,.T.);
#115=EDGE_CURVE('',#93,#94,#52,.T.);
#116=EDGE_CURVE('',#95,#92,#53,.T.);
#117=EDGE_CURVE('',#90,#95,#54,.T.);
#118=EDGE_CURVE('',#96,#95,#55,.T.);
#119=EDGE_CURVE('',#82,#96,#56,.T.);
#120=EDGE_CURVE('',#94,#96,#80,.T.);
#121=ORIENTED_EDGE('',*,*,#97,.F.);
#122=ORIENTED_EDGE('',*,*,#98,.F.);
#123=ORIENTED_EDGE('',*,*,#99,.F.);
#124=ORIENTED_EDGE('',*,*,#100,.F.);
#125=ORIENTED_EDGE('',*,*,#101,.T.);
#126=ORIENTED_EDGE('',*,*,#102,.F.);
#127=ORIENTED_EDGE('',*,*,#101,.F.);
#128=ORIENTED_EDGE('',*,*,#103,.F.);
#129=ORIENTED_EDGE('',*,*,#104,.F.);
#130=ORIENTED_EDGE('',*,*,#105,.F.);
#131=ORIENTED_EDGE('',*,*,#104,.T.);
#132=ORIENTED_EDGE('',*,*,#106,.F.);
#133=ORIENTED_EDGE('',*,*,#107,.F.);
#134=ORIENTED_EDGE('',*,*,#108,.F.);
#135=ORIENTED_EDGE('',*,*,#103,.T.);
#136=ORIENTED_EDGE('',*,*,#100,.T.);
#137=ORIENTED_EDGE('',*,*,#109,.T.);
#138=ORIENTED_EDGE('',*,*,#110,.F.);
#139=ORIENTED_EDGE('',*,*,#111,.F.);
#140=ORIENTED_EDGE('',*,*,#106,.T.);
#141=ORIENTED_EDGE('',*,*,#99,.T.);
#142=ORIENTED_EDGE('',*,*,#112,.T.);
#143=ORIENTED_EDGE('',*,*,#113,.F.);
#144=ORIENTED_EDGE('',*,*,#109,.F.);
#145=ORIENTED_EDGE('',*,*,#98,.T.);
#146=ORIENTED_EDGE('',*,*,#114,.T.);
#147=ORIENTED_EDGE('',*,*,#115,.F.);
#148=ORIENTED_EDGE('',*,*,#112,.F.);
#149=ORIENTED_EDGE('',*,*,#107,.T.);
#150=ORIENTED_EDGE('',*,*,#111,.T.);
#151=ORIENTED_EDGE('',*,*,#116,.F.);
#152=ORIENTED_EDGE('',*,*,#117,.F.);
#153=ORIENTED_EDGE('',*,*,#105,.T.);
#154=ORIENTED_EDGE('',*,*,#108,.T.);
#155=ORIENTED_EDGE('',*,*,#117,.T.);
#156=ORIENTED_EDGE('',*,*,#118,.F.);
#157=ORIENTED_EDGE('',*,*,#119,.F.);
#158=ORIENTED_EDGE('',*,*,#102,.T.);
#159=ORIENTED_EDGE('',*,*,#97,.T.);
#160=ORIENTED_EDGE('',*,*,#119,.T.);
#161=ORIENTED_EDGE('',*,*,#120,.F.);
#162=ORIENTED_EDGE('',*,*,#114,.F.);
#163=ORIENTED_EDGE('',*,*,#120,.T.);
#164=ORIENTED_EDGE('',*,*,#118,.T.);
#165=ORIENTED_EDGE('',*,*,#116,.T.);
#166=ORIENTED_EDGE('',*,*,#110,.T.);
#167=ORIENTED_EDGE('',*,*,#113,.T.);
#168=ORIENTED_EDGE('',*,*,#115,.T.);
#169=PLANE('',#201);
#170=PLANE('',#204);
#171=PLANE('',#205);
#172=PLANE('',#206);
#173=PLANE('',#209);
#174=PLANE('',#210);
#175=PLANE('',#211);
#176=PLANE('',#214);
#177=ADVANCED_FACE('',(#17),#169,.F.);
#178=ADVANCED_FACE('',(#18),#170,.F.);
#179=ADVANCED_FACE('',(#19),#171,.F.);
#180=ADVANCED_FACE('',(#20),#172,.T.);
#181=ADVANCED_FACE('',(#21),#15,.T.);
#182=ADVANCED_FACE('',(#22),#173,.T.);
#183=ADVANCED_FACE('',(#23),#174,.T.);
#184=ADVANCED_FACE('',(#24),#175,.T.);
#185=ADVANCED_FACE('',(#25),#16,.T.);
#186=ADVANCED_FACE('',(#26),#176,.T.);
#187=CLOSED_SHELL('',(#177,#178,#179,#180,#181,#182,#183,#184,#185,#186));
#188=DERIVED_UNIT_ELEMENT(#190,1.);
#189=DERIVED_UNIT_ELEMENT(#321,-3.);
#190=(
MASS_UNIT()
NAMED_UNIT(*)
SI_UNIT(.KILO.,.GRAM.)
);
#191=DERIVED_UNIT((#188,#189));
#192=MEASURE_REPRESENTATION_ITEM('density measure',
POSITIVE_RATIO_MEASURE(7850.),#191);
#193=PROPERTY_DEFINITION_REPRESENTATION(#198,#195);
#194=PROPERTY_DEFINITION_REPRESENTATION(#199,#196);
#195=REPRESENTATION('material name',(#197),#318);
#196=REPRESENTATION('density',(#192),#318);
#197=DESCRIPTIVE_REPRESENTATION_ITEM('Steel','Steel');
#198=PROPERTY_DEFINITION('material property','material name',#328);
#199=PROPERTY_DEFINITION('material property','density of part',#328);
#200=AXIS2_PLACEMENT_3D('',#265,#215,#216);
#201=AXIS2_PLACEMENT_3D('',#266,#217,#218);
#202=AXIS2_PLACEMENT_3D('',#269,#219,#220);
#203=AXIS2_PLACEMENT_3D('',#273,#222,#223);
#204=AXIS2_PLACEMENT_3D('',#279,#227,#228);
#205=AXIS2_PLACEMENT_3D('',#285,#232,#233);
#206=AXIS2_PLACEMENT_3D('',#291,#237,#238);
#207=AXIS2_PLACEMENT_3D('',#297,#242,#243);
#208=AXIS2_PLACEMENT_3D('',#300,#245,#246);
#209=AXIS2_PLACEMENT_3D('',#301,#247,#248);
#210=AXIS2_PLACEMENT_3D('',#305,#251,#252);
#211=AXIS2_PLACEMENT_3D('',#309,#255,#256);
#212=AXIS2_PLACEMENT_3D('',#313,#259,#260);
#213=AXIS2_PLACEMENT_3D('',#314,#261,#262);
#214=AXIS2_PLACEMENT_3D('',#315,#263,#264);
#215=DIRECTION('axis',(0.,0.,1.));
#216=DIRECTION('refdir',(1.,0.,0.));
#217=DIRECTION('center_axis',(0.,1.,0.));
#218=DIRECTION('ref_axis',(0.,0.,1.));
#219=DIRECTION('center_axis',(0.,1.,0.));
#220=DIRECTION('ref_axis',(-1.,0.,0.));
#221=DIRECTION('',(-4.11193712824132E-17,0.,1.));
#222=DIRECTION('center_axis',(0.,1.,0.));
#223=DIRECTION('ref_axis',(-3.19189119579733E-15,0.,-1.));
#224=DIRECTION('',(-1.,0.,0.));
#225=DIRECTION('',(0.,0.,1.));
#226=DIRECTION('',(1.,0.,0.));
#227=DIRECTION('center_axis',(1.,0.,0.));
#228=DIRECTION('ref_axis',(0.,0.,-1.));
#229=DIRECTION('',(0.,1.,0.));
#230=DIRECTION('',(0.,0.,-1.));
#231=DIRECTION('',(0.,-1.,0.));
#232=DIRECTION('center_axis',(0.,1.,0.));
#233=DIRECTION('ref_axis',(1.,0.,0.));
#234=DIRECTION('',(-1.,0.,0.));
#235=DIRECTION('',(0.,0.,-1.));
#236=DIRECTION('',(1.,0.,0.));
#237=DIRECTION('center_axis',(0.,0.,-1.));
#238=DIRECTION('ref_axis',(-1.,0.,0.));
#239=DIRECTION('',(0.,1.,0.));
#240=DIRECTION('',(-1.,0.,0.));
#241=DIRECTION('',(0.,1.,0.));
#242=DIRECTION('center_axis',(0.,1.,0.));
#243=DIRECTION('ref_axis',(-3.19189119579733E-15,0.,-1.));
#244=DIRECTION('',(0.,1.,0.));
#245=DIRECTION('center_axis',(0.,1.,0.));
#246=DIRECTION('ref_axis',(-3.19189119579733E-15,0.,-1.));
#247=DIRECTION('center_axis',(-1.,0.,-4.11193712824132E-17));
#248=DIRECTION('ref_axis',(-4.11193712824132E-17,0.,1.));
#249=DIRECTION('',(0.,1.,0.));
#250=DIRECTION('',(-4.11193712824132E-17,0.,1.));
#251=DIRECTION('center_axis',(1.,0.,0.));
#252=DIRECTION('ref_axis',(0.,0.,-1.));
#253=DIRECTION('',(0.,0.,-1.));
#254=DIRECTION('',(0.,1.,0.));
#255=DIRECTION('center_axis',(0.,0.,1.));
#256=DIRECTION('ref_axis',(1.,0.,0.));
#257=DIRECTION('',(1.,0.,0.));
#258=DIRECTION('',(0.,1.,0.));
#259=DIRECTION('center_axis',(0.,1.,0.));
#260=DIRECTION('ref_axis',(-1.,0.,0.));
#261=DIRECTION('center_axis',(0.,1.,0.));
#262=DIRECTION('ref_axis',(-1.,0.,0.));
#263=DIRECTION('center_axis',(0.,1.,0.));
#264=DIRECTION('ref_axis',(1.,0.,0.));
#265=CARTESIAN_POINT('',(0.,0.,0.));
#266=CARTESIAN_POINT('Origin',(0.,1.02000007552095,-10.7500005105976));
#267=CARTESIAN_POINT('',(-5.55111512312578E-16,1.02000007552095,-2.));
#268=CARTESIAN_POINT('',(2.,1.02000007552095,0.));
#269=CARTESIAN_POINT('Origin',(2.,1.02000007552095,-2.));
#270=CARTESIAN_POINT('',(-2.77555756156289E-16,1.02000007552095,-8.75));
#271=CARTESIAN_POINT('',(-2.3643637437615E-16,1.02000007552095,-9.7500002552988));
#272=CARTESIAN_POINT('',(2.,1.02000007552095,-10.7500005105976));
#273=CARTESIAN_POINT('Origin',(2.,1.02000007552095,-8.75));
#274=CARTESIAN_POINT('',(3.,1.02000007552095,-10.7500005105976));
#275=CARTESIAN_POINT('',(131.,1.02000007552095,-10.75));
#276=CARTESIAN_POINT('',(3.,1.02000007552095,0.));
#277=CARTESIAN_POINT('',(3.,1.02000007552095,0.));
#278=CARTESIAN_POINT('',(1.,1.02000007552095,0.));
#279=CARTESIAN_POINT('Origin',(3.,0.510000037760474,-5.3750002552988));
#280=CARTESIAN_POINT('',(3.,0.,-10.7500005105976));
#281=CARTESIAN_POINT('',(3.00000000000001,0.255000018880237,-10.75));
#282=CARTESIAN_POINT('',(3.,0.,0.));
#283=CARTESIAN_POINT('',(3.00000000000001,0.,-5.3750001276494));
#284=CARTESIAN_POINT('',(3.,0.255000018880237,0.));
#285=CARTESIAN_POINT('Origin',(131.,0.,-5.375));
#286=CARTESIAN_POINT('',(262.,0.,-10.75));
#287=CARTESIAN_POINT('',(262.,0.,-10.75));
#288=CARTESIAN_POINT('',(262.,0.,0.));
#289=CARTESIAN_POINT('',(262.,0.,0.));
#290=CARTESIAN_POINT('',(2.,0.,0.));
#291=CARTESIAN_POINT('Origin',(262.,0.,-10.75));
#292=CARTESIAN_POINT('',(1.99999999999999,1.59,-10.75));
#293=CARTESIAN_POINT('',(1.99999999999999,0.,-10.75));
#294=CARTESIAN_POINT('',(262.,1.59,-10.75));
#295=CARTESIAN_POINT('',(262.,1.59,-10.75));
#296=CARTESIAN_POINT('',(262.,0.,-10.75));
#297=CARTESIAN_POINT('Origin',(2.,0.,-8.75));
#298=CARTESIAN_POINT('',(-2.77555756156289E-16,1.59,-8.75));
#299=CARTESIAN_POINT('',(-2.77555756156289E-16,0.,-8.75));
#300=CARTESIAN_POINT('Origin',(2.,1.59,-8.75));
#301=CARTESIAN_POINT('Origin',(-2.77555756156289E-16,0.,-8.75));
#302=CARTESIAN_POINT('',(-5.55111512312578E-16,1.59,-2.));
#303=CARTESIAN_POINT('',(-5.55111512312578E-16,0.,-2.));
#304=CARTESIAN_POINT('',(-2.77555756156289E-16,1.59,-8.75));
#305=CARTESIAN_POINT('Origin',(262.,0.,0.));
#306=CARTESIAN_POINT('',(262.,1.59,0.));
#307=CARTESIAN_POINT('',(262.,1.59,0.));
#308=CARTESIAN_POINT('',(262.,0.,0.));
#309=CARTESIAN_POINT('Origin',(2.,0.,0.));
#310=CARTESIAN_POINT('',(2.,1.59,0.));
#311=CARTESIAN_POINT('',(2.,1.59,0.));
#312=CARTESIAN_POINT('',(2.,0.,0.));
#313=CARTESIAN_POINT('Origin',(2.,0.,-2.));
#314=CARTESIAN_POINT('Origin',(2.,1.59,-2.));
#315=CARTESIAN_POINT('Origin',(131.,1.59,-5.375));
#316=UNCERTAINTY_MEASURE_WITH_UNIT(LENGTH_MEASURE(0.01),#320,
'DISTANCE_ACCURACY_VALUE',
'Maximum model space distance between geometric entities at asserted c
onnectivities');
#317=UNCERTAINTY_MEASURE_WITH_UNIT(LENGTH_MEASURE(0.01),#320,
'DISTANCE_ACCURACY_VALUE',
'Maximum model space distance between geometric entities at asserted c
onnectivities');
#318=(
GEOMETRIC_REPRESENTATION_CONTEXT(3)
GLOBAL_UNCERTAINTY_ASSIGNED_CONTEXT((#316))
GLOBAL_UNIT_ASSIGNED_CONTEXT((#320,#322,#323))
REPRESENTATION_CONTEXT('','3D')
);
#319=(
GEOMETRIC_REPRESENTATION_CONTEXT(3)
GLOBAL_UNCERTAINTY_ASSIGNED_CONTEXT((#317))
GLOBAL_UNIT_ASSIGNED_CONTEXT((#320,#322,#323))
REPRESENTATION_CONTEXT('','3D')
);
#320=(
LENGTH_UNIT()
NAMED_UNIT(*)
SI_UNIT(.MILLI.,.METRE.)
);
#321=(
LENGTH_UNIT()
NAMED_UNIT(*)
SI_UNIT($,.METRE.)
);
#322=(
NAMED_UNIT(*)
PLANE_ANGLE_UNIT()
SI_UNIT($,.RADIAN.)
);
#323=(
NAMED_UNIT(*)
SI_UNIT($,.STERADIAN.)
SOLID_ANGLE_UNIT()
);
#324=SHAPE_DEFINITION_REPRESENTATION(#325,#326);
#325=PRODUCT_DEFINITION_SHAPE('',$,#328);
#326=SHAPE_REPRESENTATION('',(#200),#318);
#327=PRODUCT_DEFINITION_CONTEXT('part definition',#332,'design');
#328=PRODUCT_DEFINITION('touchbar_glass','touchbar_glass v2',#329,#327);
#329=PRODUCT_DEFINITION_FORMATION('',$,#334);
#330=PRODUCT_RELATED_PRODUCT_CATEGORY('touchbar_glass v2',
'touchbar_glass v2',(#334));
#331=APPLICATION_PROTOCOL_DEFINITION('international standard',
'automotive_design',2009,#332);
#332=APPLICATION_CONTEXT(
'Core Data for Automotive Mechanical Design Process');
#333=PRODUCT_CONTEXT('part definition',#332,'mechanical');
#334=PRODUCT('touchbar_glass','touchbar_glass v2',$,(#333));
#335=PRESENTATION_STYLE_ASSIGNMENT((#337));
#336=PRESENTATION_STYLE_ASSIGNMENT((#338));
#337=SURFACE_STYLE_USAGE(.BOTH.,#339);
#338=SURFACE_STYLE_USAGE(.BOTH.,#340);
#339=SURFACE_SIDE_STYLE('',(#341));
#340=SURFACE_SIDE_STYLE('',(#342));
#341=SURFACE_STYLE_FILL_AREA(#343);
#342=SURFACE_STYLE_FILL_AREA(#344);
#343=FILL_AREA_STYLE('Steel - Satin',(#345));
#344=FILL_AREA_STYLE('Glass (Grey)',(#346));
#345=FILL_AREA_STYLE_COLOUR('Steel - Satin',#347);
#346=FILL_AREA_STYLE_COLOUR('Glass (Grey)',#348);
#347=COLOUR_RGB('Steel - Satin',0.627450980392157,0.627450980392157,0.627450980392157);
#348=COLOUR_RGB('Glass (Grey)',0.,0.,0.);
ENDSEC;
END-ISO-10303-21;
