(footprint "CONN_BM28B0.6-34DS&slash_2-0.35V53_HIR" (version 20221018) (generator pcbnew)
  (layer "F.Cu")
  (tags "BM28B0.6-34DS/2-0.35V53 ")
  (attr smd)
  (fp_text reference "REF**" (at 0 0 unlocked) (layer "F.SilkS")
      (effects (font (size 1 1) (thickness 0.15)))
    (tstamp 62ff1fb5-88c4-4597-8c90-8852a785cae8)
  )
  (fp_text value "CONN_BM28B0.6-34DS/2-0.35V53_HIR" (at 0 0 unlocked) (layer "F.Fab")
      (effects (font (size 1 1) (thickness 0.15)))
    (tstamp ada77a27-90bb-4f33-8c57-736de7ec9d22)
  )
  (fp_text user "${REFERENCE}" (at 0 0 unlocked) (layer "F.Fab")
      (effects (font (size 1 1) (thickness 0.15)))
    (tstamp 7d5dc583-2fc3-447d-88a7-f16d4b692d14)
  )
  (fp_line (start -4.4069 -0.9779) (end -4.4069 0.9779)
    (stroke (width 0.1524) (type solid)) (layer "F.SilkS") (tstamp fb35bf60-614e-4cca-a9c3-6c567bd5f769))
  (fp_line (start -4.4069 0.9779) (end -4.094557 0.9779)
    (stroke (width 0.1524) (type solid)) (layer "F.SilkS") (tstamp 884190e0-78b4-4141-9e2c-e03604410213))
  (fp_line (start -4.094557 -0.9779) (end -4.4069 -0.9779)
    (stroke (width 0.1524) (type solid)) (layer "F.SilkS") (tstamp 1f988e13-28ab-4a9f-bccc-487e41212c10))
  (fp_line (start 4.094557 0.9779) (end 4.4069 0.9779)
    (stroke (width 0.1524) (type solid)) (layer "F.SilkS") (tstamp d92844b5-28d4-4222-b4ec-88d9e96d5bea))
  (fp_line (start 4.4069 -0.9779) (end 4.094557 -0.9779)
    (stroke (width 0.1524) (type solid)) (layer "F.SilkS") (tstamp 21479930-687e-411c-90f4-cb6877ee8280))
  (fp_line (start 4.4069 0.9779) (end 4.4069 -0.9779)
    (stroke (width 0.1524) (type solid)) (layer "F.SilkS") (tstamp 0d1b0b33-bd47-4fcc-aac0-11c2a10c3787))
  (fp_poly
    (pts
      (xy -2.95 -1.574658)
      (xy -2.8 -1.174658)
      (xy -2.65 -1.574658)
    )

    (stroke (width 0.01) (type solid)) (fill solid) (layer "F.SilkS") (tstamp 1f3d1e3f-7360-4d2f-b95a-bf0da6a501c0))
  (fp_line (start -4.5339 -1.2522) (end -4.5339 1.2522)
    (stroke (width 0.1524) (type solid)) (layer "F.CrtYd") (tstamp 4b121b61-45ee-4ceb-a7ed-90cc18160daf))
  (fp_line (start -4.5339 1.2522) (end 4.5339 1.2522)
    (stroke (width 0.1524) (type solid)) (layer "F.CrtYd") (tstamp dcf6f871-a575-4e5d-a16c-acaf6d9c69ea))
  (fp_line (start 4.5339 -1.2522) (end -4.5339 -1.2522)
    (stroke (width 0.1524) (type solid)) (layer "F.CrtYd") (tstamp b34a9e80-6b8c-4212-aaaa-ce1d45c466ab))
  (fp_line (start 4.5339 1.2522) (end 4.5339 -1.2522)
    (stroke (width 0.1524) (type solid)) (layer "F.CrtYd") (tstamp bd5a1018-0042-4688-b6fa-f53db6e680d0))
  (fp_line (start -4.2799 -0.8509) (end -4.2799 0.8509)
    (stroke (width 0.0254) (type solid)) (layer "F.Fab") (tstamp 121f6e6a-6bd6-4764-8c68-2505ac236c1e))
  (fp_line (start -4.2799 0.8509) (end 4.2799 0.8509)
    (stroke (width 0.0254) (type solid)) (layer "F.Fab") (tstamp 985e1bec-b6b3-4598-8f59-04f61cfb4e60))
  (fp_line (start 4.2799 -0.8509) (end -4.2799 -0.8509)
    (stroke (width 0.0254) (type solid)) (layer "F.Fab") (tstamp 4000987d-1408-4e7b-9f19-20cb87da0635))
  (fp_line (start 4.2799 0.8509) (end 4.2799 -0.8509)
    (stroke (width 0.0254) (type solid)) (layer "F.Fab") (tstamp c5bf3ab2-c15f-40cc-b148-e6f15ef848e8))
  (pad "1" smd rect (at -2.799999 -0.795) (size 0.1778 0.4064) (layers "F.Cu" "F.Paste" "F.Mask") (tstamp a69650fd-f232-4cb3-8ef6-697905976673))
  (pad "2" smd rect (at -2.799999 0.795) (size 0.1778 0.4064) (layers "F.Cu" "F.Paste" "F.Mask") (tstamp f701615e-a3d6-46cd-bc10-2a55f0d839a3))
  (pad "3" smd rect (at -2.45 -0.795) (size 0.1778 0.4064) (layers "F.Cu" "F.Paste" "F.Mask") (tstamp eb56c908-158b-433a-9dea-3f84d5d6161b))
  (pad "4" smd rect (at -2.45 0.795) (size 0.1778 0.4064) (layers "F.Cu" "F.Paste" "F.Mask") (tstamp ec099422-3207-426e-85eb-a4f6f414eaa4))
  (pad "5" smd rect (at -2.100001 -0.795) (size 0.1778 0.4064) (layers "F.Cu" "F.Paste" "F.Mask") (tstamp 764231e8-c4f1-4d18-9790-eda8da3e08e4))
  (pad "6" smd rect (at -2.100001 0.795) (size 0.1778 0.4064) (layers "F.Cu" "F.Paste" "F.Mask") (tstamp 903fb311-2c76-49be-9dc0-533a045b9e96))
  (pad "7" smd rect (at -1.749999 -0.795) (size 0.1778 0.4064) (layers "F.Cu" "F.Paste" "F.Mask") (tstamp a7f5fc70-0235-45c4-8c3f-efdaba21a7d6))
  (pad "8" smd rect (at -1.749999 0.795) (size 0.1778 0.4064) (layers "F.Cu" "F.Paste" "F.Mask") (tstamp 3be7ad30-a9e2-4191-926a-1bf5ec95a074))
  (pad "9" smd rect (at -1.4 -0.795) (size 0.1778 0.4064) (layers "F.Cu" "F.Paste" "F.Mask") (tstamp 3daf1b68-3dfd-48da-ab62-60bff2c6b42f))
  (pad "10" smd rect (at -1.4 0.795) (size 0.1778 0.4064) (layers "F.Cu" "F.Paste" "F.Mask") (tstamp 08d5a825-7d67-465c-b819-ba72334d50ef))
  (pad "11" smd rect (at -1.05 -0.795) (size 0.1778 0.4064) (layers "F.Cu" "F.Paste" "F.Mask") (tstamp ea0ac8e1-d577-4b7c-961f-d4ec04a93958))
  (pad "12" smd rect (at -1.05 0.795) (size 0.1778 0.4064) (layers "F.Cu" "F.Paste" "F.Mask") (tstamp fd2aa928-df4a-48af-ac35-29918d6e80fd))
  (pad "13" smd rect (at -0.700001 -0.795) (size 0.1778 0.4064) (layers "F.Cu" "F.Paste" "F.Mask") (tstamp cf068257-3acb-453c-9e68-f645e94e1e74))
  (pad "14" smd rect (at -0.700001 0.795) (size 0.1778 0.4064) (layers "F.Cu" "F.Paste" "F.Mask") (tstamp 2cf169cc-b4f3-45c4-8063-34928b6dacc2))
  (pad "15" smd rect (at -0.349999 -0.795) (size 0.1778 0.4064) (layers "F.Cu" "F.Paste" "F.Mask") (tstamp fb424b8e-8a94-4d55-8b51-c153f597237a))
  (pad "16" smd rect (at -0.349999 0.795) (size 0.1778 0.4064) (layers "F.Cu" "F.Paste" "F.Mask") (tstamp 1e77fd45-f5e0-4e8c-ab56-a11bf3ad1e49))
  (pad "17" smd rect (at 0 -0.795) (size 0.1778 0.4064) (layers "F.Cu" "F.Paste" "F.Mask") (tstamp 727e8c99-5eb0-40e1-b13a-9bc0e75d4379))
  (pad "18" smd rect (at 0 0.795) (size 0.1778 0.4064) (layers "F.Cu" "F.Paste" "F.Mask") (tstamp 5c462d82-9042-4459-b66c-dd300f52d4fe))
  (pad "19" smd rect (at 0.349999 -0.795) (size 0.1778 0.4064) (layers "F.Cu" "F.Paste" "F.Mask") (tstamp 534febb5-16fc-4d46-a46d-4989a674890e))
  (pad "20" smd rect (at 0.349999 0.795) (size 0.1778 0.4064) (layers "F.Cu" "F.Paste" "F.Mask") (tstamp df539329-1a12-4738-b876-7c50f20b78af))
  (pad "21" smd rect (at 0.700001 -0.795) (size 0.1778 0.4064) (layers "F.Cu" "F.Paste" "F.Mask") (tstamp e67f5bda-bc76-4211-a4cd-f53a0649f234))
  (pad "22" smd rect (at 0.700001 0.795) (size 0.1778 0.4064) (layers "F.Cu" "F.Paste" "F.Mask") (tstamp 04352635-632a-435d-80ef-44afc14f8ca5))
  (pad "23" smd rect (at 1.05 -0.795) (size 0.1778 0.4064) (layers "F.Cu" "F.Paste" "F.Mask") (tstamp ecf7911a-c024-478d-9c02-48598d03688b))
  (pad "24" smd rect (at 1.05 0.795) (size 0.1778 0.4064) (layers "F.Cu" "F.Paste" "F.Mask") (tstamp 11fa94c0-e87e-46d1-a329-d9639dadc46e))
  (pad "25" smd rect (at 1.4 -0.795) (size 0.1778 0.4064) (layers "F.Cu" "F.Paste" "F.Mask") (tstamp 87947eaf-4fa4-4781-bd07-a1adcf9a7453))
  (pad "26" smd rect (at 1.4 0.795) (size 0.1778 0.4064) (layers "F.Cu" "F.Paste" "F.Mask") (tstamp 030051de-47a5-423e-86ae-64dc2a23d756))
  (pad "27" smd rect (at 1.749999 -0.795) (size 0.1778 0.4064) (layers "F.Cu" "F.Paste" "F.Mask") (tstamp 31fa6258-5c3c-4754-b23d-eb4c39c40e28))
  (pad "28" smd rect (at 1.749999 0.795) (size 0.1778 0.4064) (layers "F.Cu" "F.Paste" "F.Mask") (tstamp d60a5c5c-8177-42f3-bdb5-4f136a6b2c66))
  (pad "29" smd rect (at 2.100001 -0.795) (size 0.1778 0.4064) (layers "F.Cu" "F.Paste" "F.Mask") (tstamp d40ce0f0-003f-4a51-be4d-efc3d306847d))
  (pad "30" smd rect (at 2.100001 0.795) (size 0.1778 0.4064) (layers "F.Cu" "F.Paste" "F.Mask") (tstamp 4649fd38-f817-46e8-96ca-9251f40623ce))
  (pad "31" smd rect (at 2.45 -0.795) (size 0.1778 0.4064) (layers "F.Cu" "F.Paste" "F.Mask") (tstamp 5d5ab7ad-691f-41f8-bb08-6d7e718ba22e))
  (pad "32" smd rect (at 2.45 0.795) (size 0.1778 0.4064) (layers "F.Cu" "F.Paste" "F.Mask") (tstamp 748335b7-84c4-481a-a51a-42d0c233d3d8))
  (pad "33" smd rect (at 2.799999 -0.795) (size 0.1778 0.4064) (layers "F.Cu" "F.Paste" "F.Mask") (tstamp 5594c7ba-a1d4-4d47-abd4-24363a52b5b1))
  (pad "34" smd rect (at 2.799999 0.795) (size 0.1778 0.4064) (layers "F.Cu" "F.Paste" "F.Mask") (tstamp caaeed64-c5f8-44fe-a2cc-ad9218b0a25a))
  (pad "MP1" smd rect (at -3.505002 0.745) (size 0.5334 0.3048) (layers "F.Cu" "F.Paste" "F.Mask") (tstamp 2c55abeb-c8f4-4b6e-9342-1c1932ec5945))
  (pad "MP2" smd rect (at -3.505002 -0.745) (size 0.5334 0.3048) (layers "F.Cu" "F.Paste" "F.Mask") (tstamp 632f12d1-8630-49a2-b5cf-b48b66a86fb0))
  (pad "MP3" smd rect (at 3.505002 0.745) (size 0.5334 0.3048) (layers "F.Cu" "F.Paste" "F.Mask") (tstamp 3cea3d46-77de-4c37-a8af-b721c6ea5a47))
  (pad "MP4" smd rect (at 3.505002 -0.745) (size 0.5334 0.3048) (layers "F.Cu" "F.Paste" "F.Mask") (tstamp 057b62a4-1c02-4b04-80e3-4dbb566aef2d))
  (model "BM28-34DS.stp"
    (offset (xyz 0 0 0))
    (scale (xyz 1 1 1))
    (rotate (xyz 0 0 0))
  )
)
