(footprint "DF40PG(1.5)-26DS-04V" (version 20221018) (generator pcbnew)
  (layer "F.Cu")
  (attr smd)
  (fp_text reference "REF**" (at 0 -9.375 unlocked) (layer "F.SilkS")
      (effects (font (size 1 1) (thickness 0.1)))
    (tstamp 1934d059-77a4-4f50-9f05-5f50ef24993d)
  )
  (fp_text value "DF40PG(1.5)-26DS-04V" (at 0 -7.875 unlocked) (layer "F.Fab")
      (effects (font (size 1 1) (thickness 0.15)))
    (tstamp 38d6eeea-3dd4-471f-b2d1-f7a25dfca450)
  )
  (fp_text user "${REFERENCE}" (at 0 -6.375 unlocked) (layer "F.Fab")
      (effects (font (size 1 1) (thickness 0.15)))
    (tstamp 7139a0d6-df0d-4f25-bc2a-ca97eca10de2)
  )
  (fp_line (start -2.25 0) (end -2.75 0)
    (stroke (width 0.1) (type default)) (layer "F.SilkS") (tstamp fb4a5e59-8454-4d81-b1ac-d3f1bcb081e9))
  (fp_line (start -2 -3.25) (end -1 -3.25)
    (stroke (width 0.1) (type default)) (layer "F.SilkS") (tstamp 60a38f7a-325d-489a-9fa6-f22e76dae2ff))
  (fp_line (start -2 3.25) (end -1 3.25)
    (stroke (width 0.1) (type default)) (layer "F.SilkS") (tstamp aeea007d-d012-4c9c-a5f7-efe3c4254590))
  (fp_line (start -1.75 -3.75) (end -1.25 -3.75)
    (stroke (width 0.1) (type default)) (layer "F.SilkS") (tstamp f1d9b0a4-198a-4d34-a56d-ef602cc3fe60))
  (fp_line (start -1.5 -3.5) (end -1.75 -3.75)
    (stroke (width 0.1) (type default)) (layer "F.SilkS") (tstamp eb2529c7-6b31-4037-943a-ecc0e7e8866b))
  (fp_line (start -1.25 -3.75) (end -1.5 -3.5)
    (stroke (width 0.1) (type default)) (layer "F.SilkS") (tstamp 0913ae0b-2911-4406-87bf-0f3c971e0b9b))
  (fp_line (start 0 -3.25) (end 0 -3.75)
    (stroke (width 0.1) (type default)) (layer "F.SilkS") (tstamp 2380e7e3-ea15-4ede-ab04-49e9ed10a6b3))
  (fp_line (start 0 3.75) (end 0 3.25)
    (stroke (width 0.1) (type default)) (layer "F.SilkS") (tstamp 58e81005-04be-4908-88de-98c49878fe30))
  (fp_line (start 1 -3.25) (end 2 -3.25)
    (stroke (width 0.1) (type default)) (layer "F.SilkS") (tstamp 68b87a87-95e9-4ffd-9708-65571336169c))
  (fp_line (start 1 3.25) (end 2 3.25)
    (stroke (width 0.1) (type default)) (layer "F.SilkS") (tstamp 92a74a18-73af-4c9b-88ac-2c2bb07dfd15))
  (fp_line (start 2.25 0) (end 2.75 0)
    (stroke (width 0.1) (type default)) (layer "F.SilkS") (tstamp 8c508d54-adf6-43ca-9d41-19dfa839e047))
  (pad "1" smd roundrect (at -1 -2.25) (size 1 0.245) (drill (offset -0.5 0)) (layers "F.Cu" "F.Paste" "F.Mask") (roundrect_rratio 0.1)
    (thermal_bridge_angle 45) (tstamp cb047c48-672c-497d-9b4f-6b019288c1fe))
  (pad "2" smd roundrect (at 1 -2.25 180) (size 1 0.245) (drill (offset -0.5 0)) (layers "F.Cu" "F.Paste" "F.Mask") (roundrect_rratio 0.1)
    (thermal_bridge_angle 45) (tstamp 0075e737-82a7-4d19-814a-327a97f03892))
  (pad "3" smd roundrect (at -1 -1.875) (size 0.64 0.245) (drill (offset -0.32 0)) (layers "F.Cu" "F.Paste" "F.Mask") (roundrect_rratio 0.1)
    (thermal_bridge_angle 45) (tstamp 5135eb50-ec1a-4b72-8315-1ab670a6b5c0))
  (pad "4" smd roundrect (at 1 -1.875 180) (size 0.64 0.245) (drill (offset -0.32 0)) (layers "F.Cu" "F.Paste" "F.Mask") (roundrect_rratio 0.1)
    (thermal_bridge_angle 45) (tstamp c043ace6-abc4-4f01-81cd-d6f714b4e278))
  (pad "5" smd roundrect (at -1 -1.5) (size 0.64 0.245) (drill (offset -0.32 0)) (layers "F.Cu" "F.Paste" "F.Mask") (roundrect_rratio 0.1)
    (thermal_bridge_angle 45) (tstamp 2c4825eb-0e15-4d43-b49c-894a40d0524f))
  (pad "6" smd roundrect (at 1 -1.5 180) (size 0.64 0.245) (drill (offset -0.32 0)) (layers "F.Cu" "F.Paste" "F.Mask") (roundrect_rratio 0.1)
    (thermal_bridge_angle 45) (tstamp 8e7af4bb-6b06-41b4-bf37-bf5ebd60ebc5))
  (pad "7" smd roundrect (at -1 -1.125) (size 1 0.245) (drill (offset -0.5 0)) (layers "F.Cu" "F.Paste" "F.Mask") (roundrect_rratio 0.1)
    (thermal_bridge_angle 45) (tstamp 8e0fc08a-9b22-4dbd-b67d-5f27084e0351))
  (pad "8" smd roundrect (at 1 -1.125 180) (size 1 0.245) (drill (offset -0.5 0)) (layers "F.Cu" "F.Paste" "F.Mask") (roundrect_rratio 0.1)
    (thermal_bridge_angle 45) (tstamp 57b63bda-93ba-43fe-87d8-05f96f493a2b))
  (pad "9" smd roundrect (at -1 -0.75) (size 0.64 0.245) (drill (offset -0.32 0)) (layers "F.Cu" "F.Paste" "F.Mask") (roundrect_rratio 0.1)
    (thermal_bridge_angle 45) (tstamp f3ab0545-bd7b-4ab4-9a7b-b3f5bb1ccecc))
  (pad "10" smd roundrect (at 1 -0.75 180) (size 0.64 0.245) (drill (offset -0.32 0)) (layers "F.Cu" "F.Paste" "F.Mask") (roundrect_rratio 0.1)
    (thermal_bridge_angle 45) (tstamp ec127f58-1858-4f02-b18a-6148504392e4))
  (pad "11" smd roundrect (at -1 -0.375) (size 0.64 0.245) (drill (offset -0.32 0)) (layers "F.Cu" "F.Paste" "F.Mask") (roundrect_rratio 0.1)
    (thermal_bridge_angle 45) (tstamp c1899c14-250b-4d89-8ff8-5f811a6306b7))
  (pad "12" smd roundrect (at 1 -0.375 180) (size 0.64 0.245) (drill (offset -0.32 0)) (layers "F.Cu" "F.Paste" "F.Mask") (roundrect_rratio 0.1)
    (thermal_bridge_angle 45) (tstamp 57e9ad49-7441-4040-8deb-1eb1c70ab4d7))
  (pad "13" smd roundrect (at -1 0) (size 1 0.245) (drill (offset -0.5 0)) (layers "F.Cu" "F.Paste" "F.Mask") (roundrect_rratio 0.1)
    (thermal_bridge_angle 45) (tstamp 125e9598-2a29-4475-9710-e9d6aa2e3403))
  (pad "14" smd roundrect (at 1 0 180) (size 1 0.245) (drill (offset -0.5 0)) (layers "F.Cu" "F.Paste" "F.Mask") (roundrect_rratio 0.1)
    (thermal_bridge_angle 45) (tstamp b0efacc8-c088-4db5-b077-3060e01b10c0))
  (pad "15" smd roundrect (at -1 0.375) (size 0.64 0.245) (drill (offset -0.32 0)) (layers "F.Cu" "F.Paste" "F.Mask") (roundrect_rratio 0.1)
    (thermal_bridge_angle 45) (tstamp 21e84de4-d3d6-4fac-8de8-4f71dc4e97c3))
  (pad "16" smd roundrect (at 1 0.375 180) (size 0.64 0.245) (drill (offset -0.32 0)) (layers "F.Cu" "F.Paste" "F.Mask") (roundrect_rratio 0.1)
    (thermal_bridge_angle 45) (tstamp 0a5ac559-f76e-41af-9f16-451ccb7f5a86))
  (pad "17" smd roundrect (at -1 0.75) (size 0.64 0.245) (drill (offset -0.32 0)) (layers "F.Cu" "F.Paste" "F.Mask") (roundrect_rratio 0.1)
    (thermal_bridge_angle 45) (tstamp 2bad4328-d11f-4b94-bd5f-1014073525d9))
  (pad "18" smd roundrect (at 1 0.75 180) (size 0.64 0.245) (drill (offset -0.32 0)) (layers "F.Cu" "F.Paste" "F.Mask") (roundrect_rratio 0.1)
    (thermal_bridge_angle 45) (tstamp b5e877a0-03b3-4024-932b-680a59b1a247))
  (pad "19" smd roundrect (at -1 1.125) (size 0.64 0.245) (drill (offset -0.32 0)) (layers "F.Cu" "F.Paste" "F.Mask") (roundrect_rratio 0.1)
    (thermal_bridge_angle 45) (tstamp 829da1b3-d026-4e3c-8654-0933fd02bf4a))
  (pad "20" smd roundrect (at 1 1.125 180) (size 0.64 0.245) (drill (offset -0.32 0)) (layers "F.Cu" "F.Paste" "F.Mask") (roundrect_rratio 0.1)
    (thermal_bridge_angle 45) (tstamp 44edf45f-32d2-4024-8a90-473deb716b0d))
  (pad "21" smd roundrect (at -1 1.5) (size 0.64 0.245) (drill (offset -0.32 0)) (layers "F.Cu" "F.Paste" "F.Mask") (roundrect_rratio 0.1)
    (thermal_bridge_angle 45) (tstamp 91bd4450-7dd5-4d7c-83b6-a626f99dae14))
  (pad "22" smd roundrect (at 1 1.5 180) (size 0.64 0.245) (drill (offset -0.32 0)) (layers "F.Cu" "F.Paste" "F.Mask") (roundrect_rratio 0.1)
    (thermal_bridge_angle 45) (tstamp 1c79dd54-af83-4464-908f-990607c8dfa3))
  (pad "23" smd roundrect (at -1 1.875) (size 0.64 0.245) (drill (offset -0.32 0)) (layers "F.Cu" "F.Paste" "F.Mask") (roundrect_rratio 0.1)
    (thermal_bridge_angle 45) (tstamp fc04ae33-2985-4ee5-b8d9-8055e81415ce))
  (pad "24" smd roundrect (at 1 1.875 180) (size 0.64 0.245) (drill (offset -0.32 0)) (layers "F.Cu" "F.Paste" "F.Mask") (roundrect_rratio 0.1)
    (thermal_bridge_angle 45) (tstamp f7f28637-7041-4f0c-9ae4-70fe9cb9c040))
  (pad "25" smd roundrect (at -1 2.25) (size 1 0.245) (drill (offset -0.5 0)) (layers "F.Cu" "F.Paste" "F.Mask") (roundrect_rratio 0.1)
    (thermal_bridge_angle 45) (tstamp 646a862a-be87-44e3-b47c-8ac0a4e36f69))
  (pad "26" smd roundrect (at 1 2.25 180) (size 1 0.245) (drill (offset -0.5 0)) (layers "F.Cu" "F.Paste" "F.Mask") (roundrect_rratio 0.1)
    (thermal_bridge_angle 45) (tstamp 47af91fb-0c99-439d-aa28-316e21830d10))
  (pad "27" smd roundrect (at 1 -2.81 180) (size 0.58 0.35) (drill (offset -0.71 -0.145)) (layers "F.Cu" "F.Paste" "F.Mask") (roundrect_rratio 0.1)
    (thermal_bridge_angle 45) (tstamp 3a85d2f4-b782-4882-a04e-6541fc72a78f))
  (pad "28" smd roundrect (at -1 -2.81 180) (size 0.58 0.35) (drill (offset 0.71 -0.145)) (layers "F.Cu" "F.Paste" "F.Mask") (roundrect_rratio 0.1)
    (thermal_bridge_angle 45) (tstamp 3c7ad50b-4ef2-44ad-89ef-5a60c5b4a5a3))
  (pad "29" smd roundrect (at -1 2.81) (size 0.58 0.35) (drill (offset -0.71 -0.145)) (layers "F.Cu" "F.Paste" "F.Mask") (roundrect_rratio 0.1)
    (thermal_bridge_angle 45) (tstamp 5b1690f6-3c79-420e-a62a-b2751606fc46))
  (pad "30" smd roundrect (at 1 2.81) (size 0.58 0.35) (drill (offset 0.71 -0.145)) (layers "F.Cu" "F.Paste" "F.Mask") (roundrect_rratio 0.1)
    (thermal_bridge_angle 45) (tstamp 88448acd-58f0-4878-8f80-bb664013e330))
)
