(footprint "AMPHENOL_GSD09002SDEU"
	(version 20240108)
	(generator "pcbnew")
	(generator_version "8.0")
	(layer "F.Cu")
	(property "Reference" "REF**"
		(at -22.135 -16.485 0)
		(layer "F.SilkS")
		(uuid "608eac69-82b2-4d66-89fa-5de50c97b555")
		(effects
			(font
				(size 1 1)
				(thickness 0.15)
			)
		)
	)
	(property "Value" "AMPHENOL_GSD09002SDEU"
		(at -11.975 16.59 0)
		(layer "F.Fab")
		(uuid "e4844576-39d3-45ac-991d-b65d6b294ea2")
		(effects
			(font
				(size 1 1)
				(thickness 0.15)
			)
		)
	)
	(property "Footprint" ""
		(at 0 0 0)
		(layer "F.Fab")
		(hide yes)
		(uuid "72a8c841-6ee4-4ea3-83b1-a1a3ad9b75a6")
		(effects
			(font
				(size 1.27 1.27)
				(thickness 0.15)
			)
		)
	)
	(property "Datasheet" ""
		(at 0 0 0)
		(layer "F.Fab")
		(hide yes)
		(uuid "bd9bf029-7ec2-466e-addc-aa9d7954339c")
		(effects
			(font
				(size 1.27 1.27)
				(thickness 0.15)
			)
		)
	)
	(property "Description" ""
		(at 0 0 0)
		(layer "F.Fab")
		(hide yes)
		(uuid "9f648658-c460-4857-9429-4992101ac6dc")
		(effects
			(font
				(size 1.27 1.27)
				(thickness 0.15)
			)
		)
	)
	(attr smd)
	(fp_line
		(start -23.5 -14.6)
		(end 5.4 -14.6)
		(stroke
			(width 0.127)
			(type solid)
		)
		(layer "F.SilkS")
		(uuid "6bee59be-245f-4008-a170-90d0bad9092e")
	)
	(fp_line
		(start -23.5 -9.42)
		(end -23.5 -14.6)
		(stroke
			(width 0.127)
			(type solid)
		)
		(layer "F.SilkS")
		(uuid "ef039082-a7b8-4f27-9791-22485af0a1ce")
	)
	(fp_line
		(start -23.24 14.6)
		(end -3.42 14.6)
		(stroke
			(width 0.127)
			(type solid)
		)
		(layer "F.SilkS")
		(uuid "eccb45e8-ffd1-4a1d-a752-b3fc803cb13b")
	)
	(fp_line
		(start 5.4 -14.6)
		(end 5.4 14.6)
		(stroke
			(width 0.127)
			(type solid)
		)
		(layer "F.SilkS")
		(uuid "f63966ef-bfaa-4f5e-81cf-791d662921e8")
	)
	(fp_line
		(start 5.4 14.6)
		(end -0.78 14.6)
		(stroke
			(width 0.127)
			(type solid)
		)
		(layer "F.SilkS")
		(uuid "44f91946-78e9-42fc-8254-8179845e4853")
	)
	(fp_circle
		(center -26.06 -6.1)
		(end -25.96 -6.1)
		(stroke
			(width 0.2)
			(type solid)
		)
		(fill none)
		(layer "F.SilkS")
		(uuid "055a45bb-bc5e-488a-803f-4f029d5f138a")
	)
	(fp_line
		(start -25.31 -14.85)
		(end -25.31 15.25)
		(stroke
			(width 0.05)
			(type solid)
		)
		(layer "F.CrtYd")
		(uuid "7130102a-1870-44f3-b5b9-5c644c38be52")
	)
	(fp_line
		(start -25.31 15.25)
		(end 17.7 15.25)
		(stroke
			(width 0.05)
			(type solid)
		)
		(layer "F.CrtYd")
		(uuid "eb2bcbef-ae8c-4206-8ed6-8228923ccc31")
	)
	(fp_line
		(start 17.7 -14.85)
		(end -25.31 -14.85)
		(stroke
			(width 0.05)
			(type solid)
		)
		(layer "F.CrtYd")
		(uuid "e73e3b4a-3825-4aab-836d-fdf97b0c178b")
	)
	(fp_line
		(start 17.7 15.25)
		(end 17.7 -14.85)
		(stroke
			(width 0.05)
			(type solid)
		)
		(layer "F.CrtYd")
		(uuid "e78d28ee-059d-4406-b1e3-b0ebe1a0b408")
	)
	(fp_line
		(start -23.5 -14.6)
		(end 5.4 -14.6)
		(stroke
			(width 0.127)
			(type solid)
		)
		(layer "F.Fab")
		(uuid "b54898dc-42d8-4183-bcbb-26f0de018455")
	)
	(fp_line
		(start -23.5 14.6)
		(end -23.5 -14.6)
		(stroke
			(width 0.127)
			(type solid)
		)
		(layer "F.Fab")
		(uuid "19c91f9b-0249-4437-8bef-7a82db52492d")
	)
	(fp_line
		(start 5.4 -14.6)
		(end 5.4 14.6)
		(stroke
			(width 0.127)
			(type solid)
		)
		(layer "F.Fab")
		(uuid "2f3e45d7-d662-413e-9b1e-68dfb197817c")
	)
	(fp_line
		(start 5.4 14.6)
		(end -23.5 14.6)
		(stroke
			(width 0.127)
			(type solid)
		)
		(layer "F.Fab")
		(uuid "5a40c499-9cdf-4a83-b0bc-89707cb8acb9")
	)
	(fp_circle
		(center -26.06 -6.1)
		(end -25.96 -6.1)
		(stroke
			(width 0.2)
			(type solid)
		)
		(fill none)
		(layer "F.Fab")
		(uuid "02440b0c-2183-4c9d-ba98-e451c94c03b2")
	)
	(pad "" np_thru_hole circle
		(at 0 -11.3)
		(size 1.5 1.5)
		(drill 1.5)
		(layers "*.Cu" "*.Mask")
		(uuid "f2f9618a-e502-479b-974b-ee1f951b3f8e")
	)
	(pad "" np_thru_hole circle
		(at 0 12.85)
		(size 1.5 1.5)
		(drill 1.5)
		(layers "*.Cu" "*.Mask")
		(uuid "a3c00d0f-84a8-4609-9920-f094d26696d3")
	)
	(pad "1" smd rect
		(at -24.31 -6.1)
		(size 1.5 1)
		(layers "F.Cu" "F.Paste" "F.Mask")
		(solder_mask_margin 0.102)
		(uuid "5de4be49-141b-466c-b8e7-81194830fec2")
	)
	(pad "2" smd rect
		(at -24.31 -3.6)
		(size 1.5 1)
		(layers "F.Cu" "F.Paste" "F.Mask")
		(solder_mask_margin 0.102)
		(uuid "03754f2b-f7f0-4387-8fe8-3d8ed9e13f50")
	)
	(pad "3" smd rect
		(at -24.31 -0.25)
		(size 1.5 1)
		(layers "F.Cu" "F.Paste" "F.Mask")
		(solder_mask_margin 0.102)
		(uuid "cb093e16-1c71-4d41-88fc-178eb00d3b28")
	)
	(pad "4" smd rect
		(at -24.31 1.4)
		(size 1.5 1)
		(layers "F.Cu" "F.Paste" "F.Mask")
		(solder_mask_margin 0.102)
		(uuid "185044ad-a4b0-48be-996f-5ae441661002")
	)
	(pad "5" smd rect
		(at -24.31 3.9)
		(size 1.5 1)
		(layers "F.Cu" "F.Paste" "F.Mask")
		(solder_mask_margin 0.102)
		(uuid "fa510bf9-36e8-4640-846d-9cbde08509fc")
	)
	(pad "6" smd rect
		(at -24.31 6.4)
		(size 1.5 1)
		(layers "F.Cu" "F.Paste" "F.Mask")
		(solder_mask_margin 0.102)
		(uuid "706571dd-9c0c-49ca-8b1d-cd5ccf327986")
	)
	(pad "7" smd rect
		(at -24.31 8.83)
		(size 1.5 1)
		(layers "F.Cu" "F.Paste" "F.Mask")
		(solder_mask_margin 0.102)
		(uuid "13383d69-1aba-479b-8f02-0aedad788c39")
	)
	(pad "8" smd rect
		(at -24.31 10.53)
		(size 1.5 1)
		(layers "F.Cu" "F.Paste" "F.Mask")
		(solder_mask_margin 0.102)
		(uuid "7ffa5def-55d9-456b-93db-c90a1a0aab68")
	)
	(pad "9" smd rect
		(at -24.31 -8.6)
		(size 1.5 1)
		(layers "F.Cu" "F.Paste" "F.Mask")
		(solder_mask_margin 0.102)
		(uuid "dbaf5648-e8c2-46c5-81d6-d3cb7e40242b")
	)
	(pad "10" smd rect
		(at -24.31 13.98)
		(size 1.5 1.45)
		(layers "F.Cu" "F.Paste" "F.Mask")
		(solder_mask_margin 0.102)
		(uuid "0bb29bd2-78d9-49a0-915c-e073a39c7635")
	)
	(pad "11" smd rect
		(at -24.31 -1.9)
		(size 1.5 1)
		(layers "F.Cu" "F.Paste" "F.Mask")
		(solder_mask_margin 0.102)
		(uuid "15ef3152-ebb6-4f58-974e-490bd43e730d")
	)
	(pad "12" smd rect
		(at -2.1 14.4)
		(size 2 1.2)
		(layers "F.Cu" "F.Paste" "F.Mask")
		(solder_mask_margin 0.102)
		(uuid "9295c89e-43eb-417b-895d-98b3c99c8460")
	)
	(pad "13" smd rect
		(at -3.3 -13.6)
		(size 2 1.2)
		(layers "F.Cu" "F.Paste" "F.Mask")
		(solder_mask_margin 0.102)
		(uuid "03add057-f9e5-475b-8f85-5fcfed3df8cc")
	)
	(zone
		(net 0)
		(net_name "")
		(layer "F.Cu")
		(uuid "6f20cc13-2873-46d0-972c-939ac376ac38")
		(hatch full 0.508)
		(connect_pads
			(clearance 0)
		)
		(min_thickness 0.01)
		(filled_areas_thickness no)
		(keepout
			(tracks not_allowed)
			(vias not_allowed)
			(pads not_allowed)
			(copperpour not_allowed)
			(footprints allowed)
		)
		(fill
			(thermal_gap 0.508)
			(thermal_bridge_width 0.508)
		)
		(polygon
			(pts
				(xy -21.8 -10) (xy -13.8 -10) (xy -13.8 12) (xy -21.8 12)
			)
		)
	)
	(zone
		(net 0)
		(net_name "")
		(layers "*.Cu")
		(uuid "ba9b10f3-bf42-4404-ac43-ec734b9b9c8e")
		(hatch full 0.508)
		(connect_pads
			(clearance 0)
		)
		(min_thickness 0.01)
		(filled_areas_thickness no)
		(keepout
			(tracks allowed)
			(vias not_allowed)
			(pads allowed)
			(copperpour allowed)
			(footprints allowed)
		)
		(fill
			(thermal_gap 0.508)
			(thermal_bridge_width 0.508)
		)
		(polygon
			(pts
				(xy -21.8 -10) (xy -13.8 -10) (xy -13.8 12) (xy -21.8 12)
			)
		)
	)
	(model "${AL_SHARED}/3D/GSD09002SDEU.step"
		(offset
			(xyz 0 0 0)
		)
		(scale
			(xyz 1 1 1)
		)
		(rotate
			(xyz -90 0 0)
		)
	)
)
