(footprint "Coilcraft_0807SQ-11N"
	(version 20240108)
	(generator "pcbnew")
	(generator_version "8.0")
	(layer "F.Cu")
	(descr "Coilcraft SQ Series Aircore Inductor")
	(property "Reference" "L**"
		(at 0 -3.2 0)
		(unlocked yes)
		(layer "F.SilkS")
		(uuid "bdd4f23d-861f-4df4-afea-e724308a8c2d")
		(effects
			(font
				(size 1 1)
				(thickness 0.1)
			)
		)
	)
	(property "Value" "Coilcraft_0807SQ-11N"
		(at 0 1 0)
		(unlocked yes)
		(layer "F.Fab")
		(uuid "38decc30-47aa-40f7-8e3e-b28cd671ae37")
		(effects
			(font
				(size 1 1)
				(thickness 0.15)
			)
		)
	)
	(property "Footprint" "Coilcraft_0807SQ-11N"
		(at 0 0 0)
		(unlocked yes)
		(layer "F.Fab")
		(hide yes)
		(uuid "ea522b46-640c-400b-962b-01e82b4ee99d")
		(effects
			(font
				(size 1 1)
				(thickness 0.15)
			)
		)
	)
	(property "Datasheet" "https://www.coilcraft.com/getmedia/b4a6ff85-4c1f-448e-aea7-541369538706/sq_spring.pdf"
		(at 0 0 0)
		(unlocked yes)
		(layer "F.Fab")
		(hide yes)
		(uuid "6d8292b6-cdf5-4104-8d2e-6686869992e0")
		(effects
			(font
				(size 1 1)
				(thickness 0.15)
			)
		)
	)
	(property "Description" "Coilcraft SQ Series Aircore Inductor"
		(at 0 0 0)
		(unlocked yes)
		(layer "F.Fab")
		(hide yes)
		(uuid "733557c9-4129-4d93-aa1a-bab1aeb74d7d")
		(effects
			(font
				(size 1 1)
				(thickness 0.15)
			)
		)
	)
	(attr smd)
	(fp_line
		(start -1 0)
		(end -1 1.2)
		(stroke
			(width 0.1)
			(type default)
		)
		(layer "F.SilkS")
		(uuid "976eebc6-0205-44da-b325-1f2c12603ccc")
	)
	(fp_line
		(start -0.2 -1.2)
		(end 0.2 1.2)
		(stroke
			(width 0.1)
			(type default)
		)
		(layer "F.SilkS")
		(uuid "27e1a208-9453-44d8-bd6d-0822da0ab03a")
	)
	(fp_line
		(start 0 -1.2)
		(end 0.2 0)
		(stroke
			(width 0.1)
			(type default)
		)
		(layer "F.SilkS")
		(uuid "8b98764a-f3d5-4811-b7c4-eddb2a743195")
	)
	(fp_line
		(start 0 1.2)
		(end -0.2 0)
		(stroke
			(width 0.1)
			(type default)
		)
		(layer "F.SilkS")
		(uuid "5fc35c0f-dc9a-4ecd-8819-88decda062bb")
	)
	(fp_line
		(start 1 -1.2)
		(end 1 0)
		(stroke
			(width 0.1)
			(type default)
		)
		(layer "F.SilkS")
		(uuid "4ac1457e-18e3-4f8f-a452-2b9fa954da48")
	)
	(fp_text user "${REFERENCE}"
		(at 0 2.5 0)
		(unlocked yes)
		(layer "F.Fab")
		(uuid "50e0a090-2b02-4ba0-bdd9-4683a82cd276")
		(effects
			(font
				(size 1 1)
				(thickness 0.15)
			)
		)
	)
	(pad "1" smd roundrect
		(at -0.62 0)
		(size 0.51 2.6)
		(layers "F.Cu" "F.Paste" "F.Mask")
		(roundrect_rratio 0.25)
		(thermal_bridge_angle 45)
		(uuid "c4d8a678-0d1c-4c7d-840e-660cc020160c")
	)
	(pad "2" smd roundrect
		(at 0.62 0)
		(size 0.51 2.6)
		(layers "F.Cu" "F.Paste" "F.Mask")
		(roundrect_rratio 0.25)
		(thermal_bridge_angle 45)
		(uuid "d44212db-56ff-4c87-a52b-aec610b14bf9")
	)
	(model "${AL_SHARED_MODELS}/Coilcraft-0807SQ-11N.step"
		(offset
			(xyz 0.6 0.8 0.14)
		)
		(scale
			(xyz 1 1 1)
		)
		(rotate
			(xyz 90 180 0)
		)
	)
)
