(footprint "HTSSOP-20-1EP_4.4x6.5mm_LTC_05_08_1663_K"
	(version 20240108)
	(generator "pcbnew")
	(generator_version "8.0")
	(layer "F.Cu")
	(descr "HTSSOP, 20 Pin (http://www.ti.com/lit/ds/symlink/tlc5971.pdf#page=37&zoom=160,-90,3), generated with kicad-footprint-generator ipc_gullwing_generator.py")
	(tags "HTSSOP SO")
	(property "Reference" "REF**"
		(at 0 -4.2 0)
		(layer "F.SilkS")
		(uuid "3c4a8e67-5dd8-490b-8093-cbb55cbcc47d")
		(effects
			(font
				(size 1 1)
				(thickness 0.15)
			)
		)
	)
	(property "Value" "HTSSOP-20-1EP_4.4x6.5mm_LTC_05_08_1663_K"
		(at 0 4.2 0)
		(layer "F.Fab")
		(uuid "68259d8b-a43d-4171-83b9-fb8a54f352e2")
		(effects
			(font
				(size 1 1)
				(thickness 0.15)
			)
		)
	)
	(property "Footprint" ""
		(at 0 0 0)
		(unlocked yes)
		(layer "F.Fab")
		(hide yes)
		(uuid "ade466d4-d2f4-4527-95e7-fe4757115438")
		(effects
			(font
				(size 1.27 1.27)
				(thickness 0.15)
			)
		)
	)
	(property "Datasheet" ""
		(at 0 0 0)
		(unlocked yes)
		(layer "F.Fab")
		(hide yes)
		(uuid "89d91bfb-8af0-454c-9ac9-0a4bdbf16e87")
		(effects
			(font
				(size 1.27 1.27)
				(thickness 0.15)
			)
		)
	)
	(property "Description" ""
		(at 0 0 0)
		(unlocked yes)
		(layer "F.Fab")
		(hide yes)
		(uuid "4885376e-295f-470c-a7bd-8c13dc46a00d")
		(effects
			(font
				(size 1.27 1.27)
				(thickness 0.15)
			)
		)
	)
	(attr smd)
	(fp_line
		(start 0 -3.51)
		(end -2.2 -3.51)
		(stroke
			(width 0.12)
			(type solid)
		)
		(layer "F.SilkS")
		(uuid "46d4c060-77ac-4ebc-bc7a-86c2dd43da3e")
	)
	(fp_line
		(start 0 -3.51)
		(end 2.2 -3.51)
		(stroke
			(width 0.12)
			(type solid)
		)
		(layer "F.SilkS")
		(uuid "3d0fc5b6-5d1f-454e-a1a9-b441f4da132c")
	)
	(fp_line
		(start 0 3.51)
		(end -2.2 3.51)
		(stroke
			(width 0.12)
			(type solid)
		)
		(layer "F.SilkS")
		(uuid "a32a1f6a-a6cf-401a-bd13-c2880344cabb")
	)
	(fp_line
		(start 0 3.51)
		(end 2.2 3.51)
		(stroke
			(width 0.12)
			(type solid)
		)
		(layer "F.SilkS")
		(uuid "7e63d9b5-c10c-4ecd-8656-75e67d06e73d")
	)
	(fp_poly
		(pts
			(xy -3.91 -2.925) (xy -4.24 -3.165) (xy -4.24 -2.685) (xy -3.91 -2.925)
		)
		(stroke
			(width 0.12)
			(type solid)
		)
		(fill solid)
		(layer "F.SilkS")
		(uuid "ecccf487-1f26-4490-a276-19d84106b614")
	)
	(fp_line
		(start -3.9 -3.5)
		(end -3.9 3.5)
		(stroke
			(width 0.05)
			(type solid)
		)
		(layer "F.CrtYd")
		(uuid "314cb297-f2eb-4b39-b852-fbf4d7dd932f")
	)
	(fp_line
		(start -3.9 3.5)
		(end 3.9 3.5)
		(stroke
			(width 0.05)
			(type solid)
		)
		(layer "F.CrtYd")
		(uuid "1b0a9b50-54b2-424d-a9ba-a6d856da699f")
	)
	(fp_line
		(start 3.9 -3.5)
		(end -3.9 -3.5)
		(stroke
			(width 0.05)
			(type solid)
		)
		(layer "F.CrtYd")
		(uuid "d00b138b-0cd9-42b1-b326-6bacef33e9e4")
	)
	(fp_line
		(start 3.9 3.5)
		(end 3.9 -3.5)
		(stroke
			(width 0.05)
			(type solid)
		)
		(layer "F.CrtYd")
		(uuid "e21690d0-aea1-41d7-afa5-59542c378f5c")
	)
	(fp_line
		(start 0 3.51)
		(end 0 3.51)
		(stroke
			(width 0.12)
			(type solid)
		)
		(layer "B.Fab")
		(uuid "eab0ff69-5c0a-4b43-bb40-0e747dac8ade")
	)
	(fp_line
		(start -2.2 -2.25)
		(end -1.2 -3.25)
		(stroke
			(width 0.1)
			(type solid)
		)
		(layer "F.Fab")
		(uuid "3e95ebd6-128b-43d8-8f6b-720e5502af90")
	)
	(fp_line
		(start -2.2 3.25)
		(end -2.2 -2.25)
		(stroke
			(width 0.1)
			(type solid)
		)
		(layer "F.Fab")
		(uuid "85100701-7fc4-4620-a759-19799b14645d")
	)
	(fp_line
		(start -1.2 -3.25)
		(end 2.2 -3.25)
		(stroke
			(width 0.1)
			(type solid)
		)
		(layer "F.Fab")
		(uuid "487432d6-5e33-4450-aea2-37d20e7a7539")
	)
	(fp_line
		(start 2.2 -3.25)
		(end 2.2 3.25)
		(stroke
			(width 0.1)
			(type solid)
		)
		(layer "F.Fab")
		(uuid "1f409252-16ac-423f-bb0c-253cc622a454")
	)
	(fp_line
		(start 2.2 3.25)
		(end -2.2 3.25)
		(stroke
			(width 0.1)
			(type solid)
		)
		(layer "F.Fab")
		(uuid "bbe849c6-63ab-41ad-84c7-a352823f447f")
	)
	(fp_text user "${REFERENCE}"
		(at 0 0 0)
		(layer "F.Fab")
		(uuid "fa862440-d3a7-473e-85c2-4c638334e37c")
		(effects
			(font
				(size 1 1)
				(thickness 0.15)
			)
		)
	)
	(pad "" smd roundrect
		(at -0.69 -0.86)
		(size 1.11 1.38)
		(layers "F.Paste")
		(roundrect_rratio 0.225225)
		(uuid "fb6a48a3-80c3-4539-87b4-76097b8be2b9")
	)
	(pad "" smd roundrect
		(at -0.69 0.86)
		(size 1.11 1.38)
		(layers "F.Paste")
		(roundrect_rratio 0.225225)
		(uuid "123b2a0d-3563-43ce-ab02-02ada5eeb904")
	)
	(pad "" smd roundrect
		(at 0 0)
		(size 2.75 4.064)
		(layers "F.Mask")
		(roundrect_rratio 0.091)
		(uuid "80a753a0-5390-4491-9db0-a56787567171")
	)
	(pad "" smd roundrect
		(at 0 0)
		(size 2.75 7.2)
		(layers "B.Mask")
		(roundrect_rratio 0.091)
		(uuid "2673824e-4987-4678-b98c-db59d850b47e")
	)
	(pad "" smd roundrect
		(at 0.69 -0.86)
		(size 1.11 1.38)
		(layers "F.Paste")
		(roundrect_rratio 0.225225)
		(uuid "e10b7296-98e0-4e08-9a35-f1386ced18f2")
	)
	(pad "" smd roundrect
		(at 0.69 0.86)
		(size 1.11 1.38)
		(layers "F.Paste")
		(roundrect_rratio 0.225225)
		(uuid "09d296c7-c7a8-476c-b90e-6fe7d85f697c")
	)
	(pad "1" smd roundrect
		(at -2.8625 -2.925)
		(size 1.575 0.4)
		(layers "F.Cu" "F.Paste" "F.Mask")
		(roundrect_rratio 0.25)
		(uuid "652ed262-e250-4123-b0c2-9b3955185885")
	)
	(pad "2" smd roundrect
		(at -2.8625 -2.275)
		(size 1.575 0.4)
		(layers "F.Cu" "F.Paste" "F.Mask")
		(roundrect_rratio 0.25)
		(uuid "a4a39565-0e36-4918-86e2-69adda0489f9")
	)
	(pad "3" smd roundrect
		(at -2.8625 -1.625)
		(size 1.575 0.4)
		(layers "F.Cu" "F.Paste" "F.Mask")
		(roundrect_rratio 0.25)
		(uuid "1308ff63-46ab-4b2b-bb4b-e2b21434e39b")
	)
	(pad "4" smd roundrect
		(at -2.8625 -0.975)
		(size 1.575 0.4)
		(layers "F.Cu" "F.Paste" "F.Mask")
		(roundrect_rratio 0.25)
		(uuid "2599edd2-6049-4425-8475-2c0c73f110fb")
	)
	(pad "5" smd roundrect
		(at -2.8625 -0.325)
		(size 1.575 0.4)
		(layers "F.Cu" "F.Paste" "F.Mask")
		(roundrect_rratio 0.25)
		(uuid "93635791-4fc8-413f-93d1-4d3def73bc3b")
	)
	(pad "6" smd roundrect
		(at -2.8625 0.325)
		(size 1.575 0.4)
		(layers "F.Cu" "F.Paste" "F.Mask")
		(roundrect_rratio 0.25)
		(uuid "30c8f2e5-5d06-4170-88bb-f72f03760c02")
	)
	(pad "7" smd roundrect
		(at -2.8625 0.975)
		(size 1.575 0.4)
		(layers "F.Cu" "F.Paste" "F.Mask")
		(roundrect_rratio 0.25)
		(uuid "28995c4e-56ac-41db-80cd-bc308b284b25")
	)
	(pad "8" smd roundrect
		(at -2.8625 1.625)
		(size 1.575 0.4)
		(layers "F.Cu" "F.Paste" "F.Mask")
		(roundrect_rratio 0.25)
		(uuid "15b27682-f79b-4a19-929c-35bef87a3d2a")
	)
	(pad "9" smd roundrect
		(at -2.8625 2.275)
		(size 1.575 0.4)
		(layers "F.Cu" "F.Paste" "F.Mask")
		(roundrect_rratio 0.25)
		(uuid "0e089589-429e-462a-a620-c8c979168576")
	)
	(pad "10" smd roundrect
		(at -2.8625 2.925)
		(size 1.575 0.4)
		(layers "F.Cu" "F.Paste" "F.Mask")
		(roundrect_rratio 0.25)
		(uuid "efd5e8c6-5980-44e6-8fe9-1e564ed72877")
	)
	(pad "11" smd roundrect
		(at 2.8625 2.925)
		(size 1.575 0.4)
		(layers "F.Cu" "F.Paste" "F.Mask")
		(roundrect_rratio 0.25)
		(uuid "f84672f5-fb6b-4840-bd87-84eea8b71307")
	)
	(pad "12" smd roundrect
		(at 2.8625 2.275)
		(size 1.575 0.4)
		(layers "F.Cu" "F.Paste" "F.Mask")
		(roundrect_rratio 0.25)
		(uuid "f29e1843-da47-44d2-ba37-d80f19a1b3eb")
	)
	(pad "13" smd roundrect
		(at 2.8625 1.625)
		(size 1.575 0.4)
		(layers "F.Cu" "F.Paste" "F.Mask")
		(roundrect_rratio 0.25)
		(uuid "f14cf354-e5df-4e75-b04b-792fdee7d60f")
	)
	(pad "14" smd roundrect
		(at 2.8625 0.975)
		(size 1.575 0.4)
		(layers "F.Cu" "F.Paste" "F.Mask")
		(roundrect_rratio 0.25)
		(uuid "feb59bcd-f0b3-432d-8b06-bda4e40e4fb5")
	)
	(pad "15" smd roundrect
		(at 2.8625 0.325)
		(size 1.575 0.4)
		(layers "F.Cu" "F.Paste" "F.Mask")
		(roundrect_rratio 0.25)
		(uuid "3cd38fcd-23f8-4e8b-88fd-deb49257b5f8")
	)
	(pad "16" smd roundrect
		(at 2.8625 -0.325)
		(size 1.575 0.4)
		(layers "F.Cu" "F.Paste" "F.Mask")
		(roundrect_rratio 0.25)
		(uuid "79035020-96da-4f11-969a-9d31f6514295")
	)
	(pad "17" smd roundrect
		(at 2.8625 -0.975)
		(size 1.575 0.4)
		(layers "F.Cu" "F.Paste" "F.Mask")
		(roundrect_rratio 0.25)
		(uuid "56b4bb65-c6ae-4102-9571-3db9c5da71eb")
	)
	(pad "18" smd roundrect
		(at 2.8625 -1.625)
		(size 1.575 0.4)
		(layers "F.Cu" "F.Paste" "F.Mask")
		(roundrect_rratio 0.25)
		(uuid "d25b0d29-ac45-4bfd-8c01-fc1598b8800e")
	)
	(pad "19" smd roundrect
		(at 2.8625 -2.275)
		(size 1.575 0.4)
		(layers "F.Cu" "F.Paste" "F.Mask")
		(roundrect_rratio 0.25)
		(uuid "8eb464b0-c865-418e-979e-d58edb93a4ac")
	)
	(pad "20" smd roundrect
		(at 2.8625 -2.925)
		(size 1.575 0.4)
		(layers "F.Cu" "F.Paste" "F.Mask")
		(roundrect_rratio 0.25)
		(uuid "1b63fa17-8fec-4767-8cce-979fc3875088")
	)
	(pad "21" thru_hole circle
		(at -0.889 -2.6)
		(size 0.45 0.45)
		(drill 0.3)
		(layers "*.Cu")
		(remove_unused_layers no)
		(uuid "9035cab6-5083-47b5-ad4c-eae2c3137353")
	)
	(pad "21" thru_hole circle
		(at -0.889 -1.3)
		(size 0.45 0.45)
		(drill 0.3)
		(layers "*.Cu")
		(remove_unused_layers no)
		(uuid "919b2db5-096a-4ca3-83c0-20ea15ed15d4")
	)
	(pad "21" thru_hole circle
		(at -0.889 0)
		(size 0.45 0.45)
		(drill 0.3)
		(layers "*.Cu")
		(remove_unused_layers no)
		(uuid "e1c5e9eb-2ba3-4f22-9c78-b353b6a9c246")
	)
	(pad "21" thru_hole circle
		(at -0.889 1.3)
		(size 0.45 0.45)
		(drill 0.3)
		(layers "*.Cu")
		(remove_unused_layers no)
		(uuid "f5739bca-c1c6-4ee3-8081-adf3b38fdc0e")
	)
	(pad "21" thru_hole circle
		(at -0.889 2.6)
		(size 0.45 0.45)
		(drill 0.3)
		(layers "*.Cu")
		(remove_unused_layers no)
		(uuid "9248f67c-a882-4c92-a785-6af4dd1f04be")
	)
	(pad "21" thru_hole circle
		(at 0 -2.032)
		(size 0.45 0.45)
		(drill 0.3)
		(layers "*.Cu")
		(remove_unused_layers no)
		(uuid "2a60ae8a-cb38-47d3-b3be-ed1f3f175e70")
	)
	(pad "21" thru_hole circle
		(at 0 -0.665)
		(size 0.45 0.45)
		(drill 0.3)
		(layers "*.Cu")
		(remove_unused_layers no)
		(uuid "28fbb04e-f593-4df1-b04a-4ed70b76d3e8")
	)
	(pad "21" smd roundrect
		(at 0 0)
		(size 2.74 7.2)
		(layers "F.Cu")
		(roundrect_rratio 0.073529)
		(uuid "cb752420-c94a-4e1f-bdd2-032edca8772e")
	)
	(pad "21" smd roundrect
		(at 0 0)
		(size 2.74 7.2)
		(layers "B.Cu")
		(roundrect_rratio 0.078125)
		(uuid "c1beb8ad-3965-43cc-9ef4-5585f1cbb5aa")
	)
	(pad "21" thru_hole circle
		(at 0 0.762)
		(size 0.45 0.45)
		(drill 0.3)
		(layers "*.Cu")
		(remove_unused_layers no)
		(uuid "56296015-557c-42c6-846b-5b211001b94d")
	)
	(pad "21" thru_hole circle
		(at 0 2.032)
		(size 0.45 0.45)
		(drill 0.3)
		(layers "*.Cu")
		(remove_unused_layers no)
		(uuid "c4ea8afd-758b-4f54-8d54-7d14c5d2aec2")
	)
	(pad "21" thru_hole circle
		(at 0.889 -2.6)
		(size 0.45 0.45)
		(drill 0.3)
		(layers "*.Cu")
		(remove_unused_layers no)
		(uuid "2008ad62-1441-4e6c-a9cf-12b2b61049ef")
	)
	(pad "21" thru_hole circle
		(at 0.889 -1.3)
		(size 0.45 0.45)
		(drill 0.3)
		(layers "*.Cu")
		(remove_unused_layers no)
		(uuid "5a982762-49c2-467c-8452-64e07f36b86c")
	)
	(pad "21" thru_hole circle
		(at 0.889 0)
		(size 0.45 0.45)
		(drill 0.3)
		(layers "*.Cu")
		(remove_unused_layers no)
		(uuid "dcf30f5a-9f60-4e6f-aa59-fbc707661f1d")
	)
	(pad "21" thru_hole circle
		(at 0.889 1.3)
		(size 0.45 0.45)
		(drill 0.3)
		(layers "*.Cu")
		(remove_unused_layers no)
		(uuid "5f371fbf-7d0a-4366-8e22-9137c415869a")
	)
	(pad "21" thru_hole circle
		(at 0.889 2.6)
		(size 0.45 0.45)
		(drill 0.3)
		(layers "*.Cu")
		(remove_unused_layers no)
		(uuid "4f1f8ff2-4b1f-4182-9f44-087a5c6d8506")
	)
	(model "${KICAD8_3DMODEL_DIR}/Package_SO.3dshapes/HTSSOP-20-1EP_4.4x6.5mm_P0.65mm_EP3.4x6.5mm_Mask2.75x3.43mm.wrl"
		(offset
			(xyz 0 0 0)
		)
		(scale
			(xyz 1 1 1)
		)
		(rotate
			(xyz 0 0 0)
		)
	)
)
