(footprint "SolderJumper-2_0402"
	(version 20240108)
	(generator "pcbnew")
	(generator_version "8.0")
	(layer "F.Cu")
	(descr "SMD Solder Jumper, 1x1.5mm, rounded Pads, 0.3mm gap, bridged with 1 copper strip")
	(tags "net tie solder jumper bridged")
	(property "Reference" "JP2"
		(at 0 -1.2 0)
		(layer "F.SilkS")
		(hide yes)
		(uuid "99e78824-62ea-4c5a-86e7-85640fbcd77e")
		(effects
			(font
				(size 1 1)
				(thickness 0.15)
			)
		)
	)
	(property "Value" "Jumper_2_Small_Bridged"
		(at 0 1.9 0)
		(layer "F.Fab")
		(hide yes)
		(uuid "022e9b2d-4e52-4d29-a714-52aa45f91b5c")
		(effects
			(font
				(size 1 1)
				(thickness 0.15)
			)
		)
	)
	(property "Footprint" "Jumper:SolderJumper-2_P1.3mm_Bridged_RoundedPad1.0x1.5mm"
		(at 0 0 0)
		(unlocked yes)
		(layer "F.Fab")
		(hide yes)
		(uuid "18f4a6c8-3012-4a69-9d68-ef3ae30f3264")
		(effects
			(font
				(size 1.27 1.27)
				(thickness 0.15)
			)
		)
	)
	(property "Datasheet" ""
		(at 0 0 0)
		(unlocked yes)
		(layer "F.Fab")
		(hide yes)
		(uuid "165748b9-8e1d-4b6d-8fef-e3d3e1fd888d")
		(effects
			(font
				(size 1.27 1.27)
				(thickness 0.15)
			)
		)
	)
	(property "Description" "Jumper, 2-pole, small symbol, bridged"
		(at 0 0 0)
		(unlocked yes)
		(layer "F.Fab")
		(hide yes)
		(uuid "42ddc867-4f74-4b30-9e1d-b5627eeead18")
		(effects
			(font
				(size 1.27 1.27)
				(thickness 0.15)
			)
		)
	)
	(zone_connect 1)
	(attr exclude_from_pos_files)
	(net_tie_pad_groups "1, 2")
	(fp_line
		(start -0.95 0.25)
		(end -0.95 -0.25)
		(stroke
			(width 0.12)
			(type solid)
		)
		(layer "F.SilkS")
		(uuid "6f054079-fa66-4949-8d64-b6368b639323")
	)
	(fp_line
		(start -0.75 -0.45)
		(end 0.75 -0.45)
		(stroke
			(width 0.12)
			(type solid)
		)
		(layer "F.SilkS")
		(uuid "86c33085-7a12-4248-bc87-6baefa2801f8")
	)
	(fp_line
		(start 0.75 0.45)
		(end -0.75 0.45)
		(stroke
			(width 0.12)
			(type solid)
		)
		(layer "F.SilkS")
		(uuid "d4ed7337-a0c0-4af2-a624-9af8b9457628")
	)
	(fp_line
		(start 0.95 -0.25)
		(end 0.95 0.25)
		(stroke
			(width 0.12)
			(type solid)
		)
		(layer "F.SilkS")
		(uuid "cc4ab77a-e8c1-4b44-ad29-aa6ab8bd60ee")
	)
	(fp_arc
		(start -0.95 -0.25)
		(mid -0.891422 -0.391421)
		(end -0.750001 -0.45)
		(stroke
			(width 0.12)
			(type solid)
		)
		(layer "F.SilkS")
		(uuid "c52b6650-bbaf-494b-afc5-8fbf889dbb58")
	)
	(fp_arc
		(start -0.75 0.449999)
		(mid -0.891421 0.391421)
		(end -0.95 0.25)
		(stroke
			(width 0.12)
			(type solid)
		)
		(layer "F.SilkS")
		(uuid "1c94076f-5e09-411c-9c6a-baa4299d00cf")
	)
	(fp_arc
		(start 0.750011 -0.45)
		(mid 0.892176 -0.390674)
		(end 0.95 -0.247891)
		(stroke
			(width 0.12)
			(type solid)
		)
		(layer "F.SilkS")
		(uuid "55494ebe-da1a-4d20-86a4-7feea159bf9c")
	)
	(fp_arc
		(start 0.95 0.25)
		(mid 0.891421 0.391421)
		(end 0.75 0.45)
		(stroke
			(width 0.12)
			(type solid)
		)
		(layer "F.SilkS")
		(uuid "0dd38436-eebe-4cbe-a8c5-d6d99ff63610")
	)
	(fp_line
		(start -0.928 -0.47)
		(end 0.932 -0.47)
		(stroke
			(width 0.05)
			(type solid)
		)
		(layer "F.CrtYd")
		(uuid "a87dc076-e8d0-42e1-8eb4-31d1f10c3831")
	)
	(fp_line
		(start -0.928 0.47)
		(end -0.928 -0.47)
		(stroke
			(width 0.05)
			(type solid)
		)
		(layer "F.CrtYd")
		(uuid "ad769be2-06ca-4120-a61b-32961926871e")
	)
	(fp_line
		(start 0.932 -0.47)
		(end 0.932 0.47)
		(stroke
			(width 0.05)
			(type solid)
		)
		(layer "F.CrtYd")
		(uuid "7c0d7de5-fdbf-40e0-a41a-0689dfcce098")
	)
	(fp_line
		(start 0.932 0.47)
		(end -0.928 0.47)
		(stroke
			(width 0.05)
			(type solid)
		)
		(layer "F.CrtYd")
		(uuid "6ab0d70c-4796-42fc-947a-1c346c1c6e85")
	)
	(pad "1" smd roundrect
		(at -0.508 0)
		(size 0.54 0.64)
		(layers "F.Cu" "F.Paste" "F.Mask")
		(roundrect_rratio 0.25)
		(uuid "c1dc2980-daf7-4183-ba01-753d6fd1179c")
	)
	(pad "2" smd custom
		(at 0.512 0)
		(size 0.54 0.54)
		(layers "F.Cu" "F.Paste" "F.Mask")
		(thermal_bridge_angle 90)
		(options
			(clearance outline)
			(anchor circle)
		)
		(primitives
			(gr_poly
				(pts
					(xy -0.27 -0.185) (xy -0.259724 -0.236662) (xy -0.230459 -0.280459) (xy -0.186662 -0.309724) (xy -0.135 -0.32)
					(xy 0.135 -0.32) (xy 0.186662 -0.309724) (xy 0.230459 -0.280459) (xy 0.259724 -0.236662) (xy 0.27 -0.185)
					(xy 0.27 0.185) (xy 0.259724 0.236662) (xy 0.230459 0.280459) (xy 0.186662 0.309724) (xy 0.135 0.32)
					(xy -0.135 0.32) (xy -0.186662 0.309724) (xy -0.230459 0.280459) (xy -0.259724 0.236662) (xy -0.27 0.185)
				)
				(width 0)
				(fill yes)
			)
			(gr_poly
				(pts
					(xy -0.262 -0.225) (xy -0.402366 -0.18289) (xy -0.512 -0.1) (xy -0.621634 -0.18289) (xy -0.762 -0.225)
					(xy -0.762 0.225) (xy -0.621634 0.18289) (xy -0.512 0.1) (xy -0.402366 0.18289) (xy -0.262 0.225)
				)
				(width 0)
				(fill yes)
			)
		)
		(uuid "94811009-bc8f-46f7-9858-b68bc2eb31ae")
	)
)
