(footprint "KAI-1100X" (version 20211014) (generator pcbnew)
  (layer "F.Cu")
  (tedit 61BC055E)
  (attr through_hole)
  (fp_text reference "REF**" (at -19.16 0 90) (layer "F.SilkS")
    (effects (font (size 1 1) (thickness 0.15)))
    (tstamp 154e63b4-ec39-4eee-843a-357178a84afc)
  )
  (fp_text value "KAI-1100X" (at 0 0) (layer "F.Fab")
    (effects (font (size 1 1) (thickness 0.15)))
    (tstamp 0e95dbee-21e9-41cc-acbd-4d95ce3d74be)
  )
  (fp_line (start 22.225 -16.32) (end 19.5 -16.32) (layer "Dwgs.User") (width 0.12) (tstamp 1c64d375-2152-462f-a57d-e3140b880245))
  (fp_line (start -21 16) (end -22 15) (layer "Dwgs.User") (width 0.12) (tstamp 298e8a6d-70ed-4a16-97a0-126ecef98995))
  (fp_line (start 22.225 16.32) (end 22.225 13.5) (layer "Dwgs.User") (width 0.12) (tstamp 3ed23a0b-cddc-46bc-8a74-890ae92c0fd0))
  (fp_line (start -22.225 -13.5) (end -22.225 -16.32) (layer "Dwgs.User") (width 0.12) (tstamp 527abaf9-1030-495a-8e59-a6baf54e7dbe))
  (fp_line (start -19.5 -16.32) (end -22.225 -16.32) (layer "Dwgs.User") (width 0.12) (tstamp 5f26c05c-cbb8-4e12-a600-db2bcfbd4d5d))
  (fp_line (start -22 15) (end -22 16) (layer "Dwgs.User") (width 0.12) (tstamp a090974a-7340-4579-81b1-9f289a3a6b15))
  (fp_line (start -22.225 16.32) (end -22.225 13.5) (layer "Dwgs.User") (width 0.12) (tstamp cbba42a4-239b-41e7-a281-9fa0f204aff9))
  (fp_line (start 22.225 16.32) (end 19.5 16.32) (layer "Dwgs.User") (width 0.12) (tstamp dcc916ab-27b3-4522-b43a-0e769376cbd1))
  (fp_line (start 22.225 -13.5) (end 22.225 -16.32) (layer "Dwgs.User") (width 0.12) (tstamp e8b4d293-4565-4ed9-a58a-db43362a6abf))
  (fp_line (start -19.5 16.32) (end -22.225 16.32) (layer "Dwgs.User") (width 0.12) (tstamp ed013ef0-ec14-4627-8356-c1a95a1be156))
  (fp_line (start -22 16) (end -21 16) (layer "Dwgs.User") (width 0.12) (tstamp f5f72239-cc96-4468-a61f-4ace8aaec4fa))
  (fp_line (start -17.91 17.45) (end 17.89 17.45) (layer "F.CrtYd") (width 0.05) (tstamp 2a0387bb-692b-41bf-916f-1b87f5e466ac))
  (fp_line (start -17.9 -15.4) (end -17.9 -17.45) (layer "F.CrtYd") (width 0.05) (tstamp 5ce9c3e8-f0ce-44fd-841b-e269dc7e3014))
  (fp_line (start 17.89 17.45) (end 17.89 15.4) (layer "F.CrtYd") (width 0.05) (tstamp 8253740a-7566-41f3-a400-d42eba2d66bb))
  (fp_line (start -17.91 15.4) (end 17.89 15.4) (layer "F.CrtYd") (width 0.05) (tstamp a751a4b5-8f01-4779-8389-0aec5a2f734e))
  (fp_line (start -17.9 -17.45) (end 17.9 -17.45) (layer "F.CrtYd") (width 0.05) (tstamp e52d652a-8163-42f3-970e-c7b00fc3f488))
  (fp_line (start -17.91 17.45) (end -17.91 15.4) (layer "F.CrtYd") (width 0.05) (tstamp e668e40b-0c2a-4dc1-8907-1f7d01056f1f))
  (fp_line (start 17.9 -15.4) (end 17.9 -17.45) (layer "F.CrtYd") (width 0.05) (tstamp e6956549-ff3b-4acc-9efd-b0b754ab2042))
  (fp_line (start -17.9 -15.4) (end 17.9 -15.4) (layer "F.CrtYd") (width 0.05) (tstamp fd87f094-003d-49a5-bb6d-b73df0dbe3fa))
  (pad "1" thru_hole circle (at -16.91 16.445) (size 1.5 1.5) (drill 0.92) (layers *.Cu *.Mask) (tstamp a2ceeece-c014-49f4-bfcd-0470f19b4dcc))
  (pad "2" thru_hole circle (at -15.13 16.445) (size 1.5 1.5) (drill 0.92) (layers *.Cu *.Mask) (tstamp 707455fa-f5d7-4c41-b3e4-47932f99cd04))
  (pad "3" thru_hole circle (at -13.35 16.445) (size 1.5 1.5) (drill 0.92) (layers *.Cu *.Mask) (tstamp 37dca25c-d832-48d7-946d-808b93462626))
  (pad "4" thru_hole circle (at -11.57 16.445) (size 1.5 1.5) (drill 0.92) (layers *.Cu *.Mask) (tstamp a5137a75-ea67-405e-bddd-2d5c163489b2))
  (pad "5" thru_hole circle (at -9.79 16.445) (size 1.5 1.5) (drill 0.92) (layers *.Cu *.Mask) (tstamp 9e45f22c-9b11-4168-98fd-060e8c5eb2d8))
  (pad "6" thru_hole circle (at -8.01 16.445) (size 1.5 1.5) (drill 0.92) (layers *.Cu *.Mask) (tstamp 236747af-bad5-4d70-ad9d-2e453dc4819a))
  (pad "7" thru_hole circle (at -6.23 16.445) (size 1.5 1.5) (drill 0.92) (layers *.Cu *.Mask) (tstamp 87d589b7-d101-4127-a109-1fac035e07e2))
  (pad "8" thru_hole circle (at -4.45 16.445) (size 1.5 1.5) (drill 0.92) (layers *.Cu *.Mask) (tstamp f2d28580-edca-4748-84ca-60511e16c83c))
  (pad "9" thru_hole circle (at -2.67 16.445) (size 1.5 1.5) (drill 0.92) (layers *.Cu *.Mask) (tstamp 0e93ed28-b02d-4b69-9de8-64278840d677))
  (pad "10" thru_hole circle (at -0.89 16.445) (size 1.5 1.5) (drill 0.92) (layers *.Cu *.Mask) (tstamp 276d19e6-d493-4698-9087-f18a0fbacae3))
  (pad "11" thru_hole circle (at 0.89 16.445) (size 1.5 1.5) (drill 0.92) (layers *.Cu *.Mask) (tstamp 79482f8d-2cf0-4e62-be20-4f6c0babb528))
  (pad "12" thru_hole circle (at 2.67 16.445) (size 1.5 1.5) (drill 0.92) (layers *.Cu *.Mask) (tstamp 09acf7ac-7353-488c-b802-c8afacb5b977))
  (pad "13" thru_hole circle (at 4.45 16.445) (size 1.5 1.5) (drill 0.92) (layers *.Cu *.Mask) (tstamp 16383b59-39b6-4073-9d73-91111fa4bdba))
  (pad "14" thru_hole circle (at 6.23 16.445) (size 1.5 1.5) (drill 0.92) (layers *.Cu *.Mask) (tstamp e4a6a0cc-83b5-4479-b0ea-a3cec3860546))
  (pad "15" thru_hole circle (at 8.01 16.445) (size 1.5 1.5) (drill 0.92) (layers *.Cu *.Mask) (tstamp b722abda-808a-4a74-9de2-3ec2b4c7ab35))
  (pad "16" thru_hole circle (at 9.79 16.445) (size 1.5 1.5) (drill 0.92) (layers *.Cu *.Mask) (tstamp e1f59ce4-a637-42e1-81bb-01250cb9538c))
  (pad "17" thru_hole circle (at 11.57 16.445) (size 1.5 1.5) (drill 0.92) (layers *.Cu *.Mask) (tstamp 90e9dbd7-66b1-4164-84ca-d5226c4abd6c))
  (pad "18" thru_hole circle (at 13.35 16.445) (size 1.5 1.5) (drill 0.92) (layers *.Cu *.Mask) (tstamp 5fcb5afc-6e40-43ee-badc-d907750ad292))
  (pad "19" thru_hole circle (at 15.13 16.445) (size 1.5 1.5) (drill 0.92) (layers *.Cu *.Mask) (tstamp 4b1ff61c-c30b-478f-88e4-a06089f1e1cc))
  (pad "20" thru_hole circle (at 16.91 16.445) (size 1.5 1.5) (drill 0.92) (layers *.Cu *.Mask) (tstamp 21c6b099-bc6b-4bf7-b5b5-545f7c638762))
  (pad "21" thru_hole circle (at 16.91 -16.445) (size 1.5 1.5) (drill 0.92) (layers *.Cu *.Mask) (tstamp 042fa8be-8e42-40d6-b2f9-1bfc01e150be))
  (pad "22" thru_hole circle (at 15.13 -16.445) (size 1.5 1.5) (drill 0.92) (layers *.Cu *.Mask) (tstamp 48400010-53f0-48a5-90d3-f85ec4b16e50))
  (pad "23" thru_hole circle (at 13.35 -16.445) (size 1.5 1.5) (drill 0.92) (layers *.Cu *.Mask) (tstamp 7890c62e-c451-428a-942c-03027aa9ab17))
  (pad "24" thru_hole circle (at 11.57 -16.445) (size 1.5 1.5) (drill 0.92) (layers *.Cu *.Mask) (tstamp 0d3883a2-3daf-4829-a115-497fd8efadc3))
  (pad "25" thru_hole circle (at 9.79 -16.445) (size 1.5 1.5) (drill 0.92) (layers *.Cu *.Mask) (tstamp 56dcc5af-7b6b-4f40-bb64-960f3112d767))
  (pad "26" thru_hole circle (at 8.01 -16.445) (size 1.5 1.5) (drill 0.92) (layers *.Cu *.Mask) (tstamp 455432a6-8d73-42dd-a16d-2d55d07d1bde))
  (pad "27" thru_hole circle (at 6.23 -16.445) (size 1.5 1.5) (drill 0.92) (layers *.Cu *.Mask) (tstamp 089bc062-2536-47ff-9f4c-0765cbf88d4f))
  (pad "28" thru_hole circle (at 4.45 -16.445) (size 1.5 1.5) (drill 0.92) (layers *.Cu *.Mask) (tstamp 5f36bbc2-2145-4096-b1fe-a16c9352793b))
  (pad "29" thru_hole circle (at 2.67 -16.445) (size 1.5 1.5) (drill 0.92) (layers *.Cu *.Mask) (tstamp 11bd5b41-5f97-494e-be68-6eef589956de))
  (pad "30" thru_hole circle (at 0.89 -16.445) (size 1.5 1.5) (drill 0.92) (layers *.Cu *.Mask) (tstamp 7aca73e2-5eb9-46f1-b040-be033f03cff0))
  (pad "31" thru_hole circle (at -0.89 -16.445) (size 1.5 1.5) (drill 0.92) (layers *.Cu *.Mask) (tstamp f0868d4b-9cce-480c-b726-8e31a9918364))
  (pad "32" thru_hole circle (at -2.67 -16.445) (size 1.5 1.5) (drill 0.92) (layers *.Cu *.Mask) (tstamp e3dc3eda-d52d-4c99-a5c3-4fa8d9e21f49))
  (pad "33" thru_hole circle (at -4.45 -16.445) (size 1.5 1.5) (drill 0.92) (layers *.Cu *.Mask) (tstamp c266e612-18b5-47a1-ae3f-378db2473a72))
  (pad "34" thru_hole circle (at -6.23 -16.445) (size 1.5 1.5) (drill 0.92) (layers *.Cu *.Mask) (tstamp 9eb98923-0770-45a7-b1ed-ec6dce2d7f13))
  (pad "35" thru_hole circle (at -8.01 -16.445) (size 1.5 1.5) (drill 0.92) (layers *.Cu *.Mask) (tstamp 8d004b97-e79b-451b-8554-0f2d89565db5))
  (pad "36" thru_hole circle (at -9.79 -16.445) (size 1.5 1.5) (drill 0.92) (layers *.Cu *.Mask) (tstamp 6e56b114-69a7-43fa-a33d-ed6de93006d6))
  (pad "37" thru_hole circle (at -11.57 -16.445) (size 1.5 1.5) (drill 0.92) (layers *.Cu *.Mask) (tstamp c7b31cbb-bef0-4425-9695-066d8ffe5721))
  (pad "38" thru_hole circle (at -13.35 -16.445) (size 1.5 1.5) (drill 0.92) (layers *.Cu *.Mask) (tstamp 945cf681-ac3d-46ad-a032-90743472394e))
  (pad "39" thru_hole circle (at -15.13 -16.445) (size 1.5 1.5) (drill 0.92) (layers *.Cu *.Mask) (tstamp b6f85e05-9e9d-480b-9f9d-586362025f60))
  (pad "40" thru_hole circle (at -16.91 -16.445) (size 1.5 1.5) (drill 0.92) (layers *.Cu *.Mask) (tstamp ee78b50b-dc20-475b-9cc6-2b3c10dc2e28))
  (model "/Users/wenting/Documents/projects/SitinaNe/Hardware/common/footprints.pretty/KAI11000.step"
    (offset (xyz -22.225 -16.32 2.22))
    (scale (xyz 1 1 1))
    (rotate (xyz -90 0 0))
  )
)
