(footprint "MAXIM_WLP15_P0.5mm" (version 20221018) (generator pcbnew)
  (layer "F.Cu")
  (attr smd)
  (fp_text reference "REF**" (at -0.48 -8.72 unlocked) (layer "F.SilkS")
      (effects (font (size 1 1) (thickness 0.1)))
    (tstamp 3d071ef7-1c3c-4128-aba3-26ecc5c3bb70)
  )
  (fp_text value "MAXIM_WLP15_P0.5mm" (at -0.48 -7.22 unlocked) (layer "F.Fab")
      (effects (font (size 1 1) (thickness 0.15)))
    (tstamp 2d97124f-4054-4a0c-b0a2-ffa7e502b76d)
  )
  (fp_text user "${REFERENCE}" (at -0.48 -5.72 unlocked) (layer "F.Fab")
      (effects (font (size 1 1) (thickness 0.15)))
    (tstamp 17060750-f715-4a99-bf28-e5262bdb51a0)
  )
  (fp_text user "${REFERENCE}" (at -0.25 0) (layer "F.Fab")
      (effects (font (size 0.4 0.4) (thickness 0.04)))
    (tstamp 342eb03c-a1a5-42a0-8022-3bf7a18c9adf)
  )
  (fp_line (start -1.55 -1.1) (end -1.55 -0.1)
    (stroke (width 0.1) (type solid)) (layer "F.SilkS") (tstamp 3a36ffd1-977d-4fa0-9c2e-87fcc132e178))
  (fp_line (start -1.55 -1.1) (end -0.55 -1.1)
    (stroke (width 0.1) (type solid)) (layer "F.SilkS") (tstamp 1be95701-1c66-4b9a-9ad1-774793eaa06e))
  (fp_line (start -1.35 -0.9) (end -1.35 0.9)
    (stroke (width 0.1) (type solid)) (layer "F.SilkS") (tstamp 6124f0f9-93bd-45f9-94d4-e49933382496))
  (fp_line (start -1.35 -0.9) (end 1.35 -0.9)
    (stroke (width 0.1) (type solid)) (layer "F.SilkS") (tstamp 392f336c-fca8-450b-8193-b90007ddf123))
  (fp_line (start 1.35 0.9) (end -1.35 0.9)
    (stroke (width 0.1) (type solid)) (layer "F.SilkS") (tstamp f3719a4a-4916-4216-a495-ee311d8879ce))
  (fp_line (start 1.35 0.9) (end 1.35 -0.9)
    (stroke (width 0.1) (type solid)) (layer "F.SilkS") (tstamp a0165cc3-ba8c-41f4-ab66-62f00466f5f8))
  (fp_line (start -2.27 -1.78) (end 2.27 -1.78)
    (stroke (width 0.05) (type solid)) (layer "F.CrtYd") (tstamp ed15b4f5-8ece-4649-98c5-66405f054a73))
  (fp_line (start -2.27 1.78) (end -2.27 -1.78)
    (stroke (width 0.05) (type solid)) (layer "F.CrtYd") (tstamp 7d084563-1721-4f0f-9cce-5e2804d2752d))
  (fp_line (start -2.27 1.78) (end 2.27 1.78)
    (stroke (width 0.05) (type solid)) (layer "F.CrtYd") (tstamp 148707b4-4ae3-40f8-b83e-de8e4cdd75bc))
  (fp_line (start 2.27 -1.78) (end 2.27 1.78)
    (stroke (width 0.05) (type solid)) (layer "F.CrtYd") (tstamp 2368c945-92ef-452f-9674-2adabdcdcc96))
  (fp_line (start -1.27 0.78) (end -1.27 -0.54)
    (stroke (width 0.1) (type solid)) (layer "F.Fab") (tstamp 9c2a97d2-f05c-4806-aad9-44f5e68b28cb))
  (fp_line (start -1.27 0.78) (end 1.27 0.78)
    (stroke (width 0.1) (type solid)) (layer "F.Fab") (tstamp ada72fef-4ad0-4b7c-8ada-0944cb38faba))
  (fp_line (start -1 -0.78) (end -1.27 -0.54)
    (stroke (width 0.1) (type solid)) (layer "F.Fab") (tstamp f1e3347c-bcfe-4f02-95b5-2d937da6574f))
  (fp_line (start 1.27 -0.78) (end -1 -0.78)
    (stroke (width 0.1) (type solid)) (layer "F.Fab") (tstamp 534920a2-965e-4e69-85c8-a6380ee33c76))
  (fp_line (start 1.27 -0.78) (end 1.27 0.78)
    (stroke (width 0.1) (type solid)) (layer "F.Fab") (tstamp 7aa67659-937d-4d93-8ae9-484bf373a7e8))
  (pad "A1" smd circle (at -1 -0.5 90) (size 0.3 0.3) (layers "F.Cu" "F.Paste" "F.Mask") (tstamp 35dde352-36fc-4785-abdb-8b81319e46db))
  (pad "A2" smd circle (at -0.5 -0.5 90) (size 0.3 0.3) (layers "F.Cu" "F.Paste" "F.Mask") (tstamp 5cc1f546-500a-492d-aa73-915584d0bf63))
  (pad "A3" smd circle (at 0 -0.5 90) (size 0.3 0.3) (layers "F.Cu" "F.Paste" "F.Mask") (tstamp 349b80f3-6c5f-4009-aaca-3aad33781ce4))
  (pad "A4" smd circle (at 0.5 -0.5 90) (size 0.3 0.3) (layers "F.Cu" "F.Paste" "F.Mask") (tstamp acc024d5-3166-4b7a-9bed-fb6a7aefd6f3))
  (pad "A5" smd circle (at 1 -0.5 90) (size 0.3 0.3) (layers "F.Cu" "F.Paste" "F.Mask") (tstamp bb2345f5-7b0a-49f8-b184-05ba6d7e84a2))
  (pad "B1" smd circle (at -1 0 90) (size 0.3 0.3) (layers "F.Cu" "F.Paste" "F.Mask") (tstamp 79d62bba-0f0e-4b9e-a5cc-edfc08aab1b0))
  (pad "B2" smd circle (at -0.5 0 90) (size 0.3 0.3) (layers "F.Cu" "F.Paste" "F.Mask") (tstamp 947ccda4-6ba2-4032-8908-b9cdb3802ae6))
  (pad "B3" smd circle (at 0 0 90) (size 0.3 0.3) (layers "F.Cu" "F.Paste" "F.Mask") (tstamp 54f444d0-6578-4b0d-9c61-610d1d1b94d1))
  (pad "B4" smd circle (at 0.5 0 90) (size 0.3 0.3) (layers "F.Cu" "F.Paste" "F.Mask") (tstamp ef96a179-dcf3-43ed-a2e0-3762453324a1))
  (pad "B5" smd circle (at 1 0 90) (size 0.3 0.3) (layers "F.Cu" "F.Paste" "F.Mask") (tstamp 54722d98-1030-4c10-80f7-b529e41be381))
  (pad "C1" smd circle (at -1 0.5 90) (size 0.3 0.3) (layers "F.Cu" "F.Paste" "F.Mask") (tstamp fc466c18-5bf7-4874-b994-c7266e3e5402))
  (pad "C2" smd circle (at -0.5 0.5 90) (size 0.3 0.3) (layers "F.Cu" "F.Paste" "F.Mask") (tstamp 3b9f71db-09ff-4d2f-9961-7efa603ae738))
  (pad "C3" smd circle (at 0 0.5 90) (size 0.3 0.3) (layers "F.Cu" "F.Paste" "F.Mask") (tstamp 770ba421-3e71-4d1a-9657-f6c18ede2111))
  (pad "C4" smd circle (at 0.5 0.5 90) (size 0.3 0.3) (layers "F.Cu" "F.Paste" "F.Mask") (tstamp 13c44c4f-062c-46a1-96e4-58b17477a9a0))
  (pad "C5" smd circle (at 1 0.5 90) (size 0.3 0.3) (layers "F.Cu" "F.Paste" "F.Mask") (tstamp 92fbfe1e-c7dd-49c7-8230-b8c36ee5c746))
  (model "/Users/andylithia/PCB/flora/Hardware/Lib/MAX17330X22+.stp"
    (offset (xyz 0 0 0))
    (scale (xyz 1 1 1))
    (rotate (xyz 0 0 0))
  )
)
