(footprint "MODULE_DM-OLED096-636" (version 20221018) (generator pcbnew)
  (layer "F.Cu")
  (attr through_hole)
  (fp_text reference "REF**" (at -9.525 -13.97) (layer "F.SilkS")
      (effects (font (size 1 1) (thickness 0.15)))
    (tstamp 39ca1cdb-d147-493f-bb82-d16b11041d3e)
  )
  (fp_text value "MODULE_DM-OLED096-636" (at 0.635 13.97) (layer "F.Fab")
      (effects (font (size 1 1) (thickness 0.15)))
    (tstamp d98836ad-f8a0-48dc-85d2-c022ba0a8ce0)
  )
  (fp_circle (center -4 -13.5) (end -3.9 -13.5)
    (stroke (width 0.2) (type solid)) (fill none) (layer "F.SilkS") (tstamp 8120b952-039b-4300-82f7-2320b83cfbf2))
  (fp_line (start -13.25 -13.25) (end 13.25 -13.25)
    (stroke (width 0.05) (type solid)) (layer "F.CrtYd") (tstamp a75f9ffc-b65e-448b-821d-da2bc1784817))
  (fp_line (start -13.25 -10.16) (end -13.25 -13.25)
    (stroke (width 0.05) (type solid)) (layer "F.CrtYd") (tstamp fddf6b40-2219-45a1-9a35-696b3db2eac0))
  (fp_line (start 13.25 -13.25) (end 13.25 -10.16)
    (stroke (width 0.05) (type solid)) (layer "F.CrtYd") (tstamp 0c01503c-7585-4c07-9dfe-84e62c35eec4))
  (fp_line (start 13.25 -10.16) (end -13.25 -10.16)
    (stroke (width 0.05) (type solid)) (layer "F.CrtYd") (tstamp 85c005aa-4632-48ad-9ff3-057677b8fa2e))
  (fp_line (start -13 -13) (end 13 -13)
    (stroke (width 0.127) (type solid)) (layer "F.Fab") (tstamp 26478ec2-0ed7-47fb-9da6-5052f02399dd))
  (fp_line (start -13 13) (end -13 -13)
    (stroke (width 0.127) (type solid)) (layer "F.Fab") (tstamp 05aa9c92-f586-43bb-9c4a-90763801c98f))
  (fp_line (start -7 11) (end 7 11)
    (stroke (width 0.127) (type solid)) (layer "F.Fab") (tstamp 2938a03b-98c0-4dd6-9856-f3c6287ca96d))
  (fp_line (start -7 13) (end -13 13)
    (stroke (width 0.127) (type solid)) (layer "F.Fab") (tstamp b3392a44-f2ed-405b-aaf0-70cea8c9dab3))
  (fp_line (start -7 13) (end -7 11)
    (stroke (width 0.127) (type solid)) (layer "F.Fab") (tstamp 4c9d1b23-ed1a-4542-9741-170e75bed989))
  (fp_line (start 7 11) (end 7 13)
    (stroke (width 0.127) (type solid)) (layer "F.Fab") (tstamp 9df90dcf-a7a0-44ec-b8ef-3cf41a711b7a))
  (fp_line (start 13 -13) (end 13 13)
    (stroke (width 0.127) (type solid)) (layer "F.Fab") (tstamp ce7428c9-373a-4c17-b378-b5686d0850df))
  (fp_line (start 13 13) (end 7 13)
    (stroke (width 0.127) (type solid)) (layer "F.Fab") (tstamp 80d75553-7ef0-4298-babb-b907f1382d62))
  (fp_circle (center -4 -13.5) (end -3.9 -13.5)
    (stroke (width 0.2) (type solid)) (fill none) (layer "F.Fab") (tstamp a50a8447-04e3-44fd-9c4d-14f88b71719d))
  (pad "1" thru_hole rect (at -3.81 -11.5) (size 1.508 1.508) (drill 1) (layers "*.Cu" "*.Mask")
    (solder_mask_margin 0.102) (tstamp 01e0f213-d333-4825-8b33-839fb3e1d460))
  (pad "2" thru_hole circle (at -1.27 -11.5) (size 1.508 1.508) (drill 1) (layers "*.Cu" "*.Mask")
    (solder_mask_margin 0.102) (tstamp 74116db8-26e0-4732-89da-a710f342646a))
  (pad "3" thru_hole circle (at 1.27 -11.5) (size 1.508 1.508) (drill 1) (layers "*.Cu" "*.Mask")
    (solder_mask_margin 0.102) (tstamp 5d44b280-a8ee-43c5-a580-b9e492153392))
  (pad "4" thru_hole circle (at 3.81 -11.5) (size 1.508 1.508) (drill 1) (layers "*.Cu" "*.Mask")
    (solder_mask_margin 0.102) (tstamp b41433b5-5e6e-41a7-85ca-c05a8a9c7a8f))
  (model "DM-OLED096-636.step"
    (offset (xyz 0 0 0))
    (scale (xyz 1 1 1))
    (rotate (xyz -90 0 0))
  )
)
