ISO-10303-21;
HEADER;
/* Generated by software containing ST-Developer
 * from STEP Tools, Inc. (www.steptools.com) 
 */

FILE_DESCRIPTION(
/* description */ (''),
/* implementation_level */ '2;1');

FILE_NAME(
/* name */ '/Users/wenting/Downloads/PJ-210A.step',
/* time_stamp */ '2022-05-07T10:53:26-05:00',
/* author */ (''),
/* organization */ (''),
/* preprocessor_version */ 'ST-DEVELOPER v18.1',
/* originating_system */ 'Autodesk Translation Framework v10.14.0.1471',

/* authorisation */ '');

FILE_SCHEMA (('AUTOMOTIVE_DESIGN { 1 0 10303 214 3 1 1 }'));
ENDSEC;

DATA;
#10=MECHANICAL_DESIGN_GEOMETRIC_PRESENTATION_REPRESENTATION('',(#13),#318);
#11=SHAPE_REPRESENTATION_RELATIONSHIP('SRR','None',#325,#12);
#12=ADVANCED_BREP_SHAPE_REPRESENTATION('',(#14),#317);
#13=STYLED_ITEM('',(#334),#14);
#14=MANIFOLD_SOLID_BREP('Body1',#182);
#15=FACE_BOUND('',#44,.T.);
#16=FACE_BOUND('',#46,.T.);
#17=FACE_BOUND('',#53,.T.);
#18=PLANE('',#199);
#19=PLANE('',#206);
#20=PLANE('',#207);
#21=PLANE('',#208);
#22=PLANE('',#209);
#23=PLANE('',#210);
#24=PLANE('',#211);
#25=PLANE('',#212);
#26=PLANE('',#213);
#27=FACE_OUTER_BOUND('',#39,.T.);
#28=FACE_OUTER_BOUND('',#40,.T.);
#29=FACE_OUTER_BOUND('',#41,.T.);
#30=FACE_OUTER_BOUND('',#42,.T.);
#31=FACE_OUTER_BOUND('',#43,.T.);
#32=FACE_OUTER_BOUND('',#45,.T.);
#33=FACE_OUTER_BOUND('',#47,.T.);
#34=FACE_OUTER_BOUND('',#48,.T.);
#35=FACE_OUTER_BOUND('',#49,.T.);
#36=FACE_OUTER_BOUND('',#50,.T.);
#37=FACE_OUTER_BOUND('',#51,.T.);
#38=FACE_OUTER_BOUND('',#52,.T.);
#39=EDGE_LOOP('',(#125,#126,#127,#128));
#40=EDGE_LOOP('',(#129));
#41=EDGE_LOOP('',(#130,#131,#132,#133));
#42=EDGE_LOOP('',(#134,#135,#136,#137));
#43=EDGE_LOOP('',(#138));
#44=EDGE_LOOP('',(#139));
#45=EDGE_LOOP('',(#140,#141,#142,#143));
#46=EDGE_LOOP('',(#144));
#47=EDGE_LOOP('',(#145,#146,#147,#148));
#48=EDGE_LOOP('',(#149,#150,#151,#152));
#49=EDGE_LOOP('',(#153));
#50=EDGE_LOOP('',(#154,#155,#156,#157));
#51=EDGE_LOOP('',(#158,#159,#160,#161));
#52=EDGE_LOOP('',(#162,#163,#164,#165));
#53=EDGE_LOOP('',(#166));
#54=LINE('',#272,#69);
#55=LINE('',#279,#70);
#56=LINE('',#285,#71);
#57=LINE('',#291,#72);
#58=LINE('',#293,#73);
#59=LINE('',#295,#74);
#60=LINE('',#296,#75);
#61=LINE('',#300,#76);
#62=LINE('',#302,#77);
#63=LINE('',#304,#78);
#64=LINE('',#305,#79);
#65=LINE('',#307,#80);
#66=LINE('',#308,#81);
#67=LINE('',#311,#82);
#68=LINE('',#312,#83);
#69=VECTOR('',#220,0.4);
#70=VECTOR('',#229,1.3);
#71=VECTOR('',#236,2.);
#72=VECTOR('',#243,10.);
#73=VECTOR('',#244,10.);
#74=VECTOR('',#245,10.);
#75=VECTOR('',#246,10.);
#76=VECTOR('',#249,10.);
#77=VECTOR('',#250,10.);
#78=VECTOR('',#251,10.);
#79=VECTOR('',#252,10.);
#80=VECTOR('',#255,10.);
#81=VECTOR('',#256,10.);
#82=VECTOR('',#261,10.);
#83=VECTOR('',#262,10.);
#84=CIRCLE('',#197,0.4);
#85=CIRCLE('',#198,0.4);
#86=CIRCLE('',#201,1.3);
#87=CIRCLE('',#202,1.3);
#88=CIRCLE('',#204,2.);
#89=CIRCLE('',#205,2.);
#90=VERTEX_POINT('',#269);
#91=VERTEX_POINT('',#271);
#92=VERTEX_POINT('',#276);
#93=VERTEX_POINT('',#278);
#94=VERTEX_POINT('',#282);
#95=VERTEX_POINT('',#284);
#96=VERTEX_POINT('',#289);
#97=VERTEX_POINT('',#290);
#98=VERTEX_POINT('',#292);
#99=VERTEX_POINT('',#294);
#100=VERTEX_POINT('',#298);
#101=VERTEX_POINT('',#299);
#102=VERTEX_POINT('',#301);
#103=VERTEX_POINT('',#303);
#104=EDGE_CURVE('',#90,#90,#84,.T.);
#105=EDGE_CURVE('',#90,#91,#54,.T.);
#106=EDGE_CURVE('',#91,#91,#85,.T.);
#107=EDGE_CURVE('',#92,#92,#86,.T.);
#108=EDGE_CURVE('',#92,#93,#55,.T.);
#109=EDGE_CURVE('',#93,#93,#87,.T.);
#110=EDGE_CURVE('',#94,#94,#88,.T.);
#111=EDGE_CURVE('',#94,#95,#56,.T.);
#112=EDGE_CURVE('',#95,#95,#89,.T.);
#113=EDGE_CURVE('',#96,#97,#57,.T.);
#114=EDGE_CURVE('',#97,#98,#58,.T.);
#115=EDGE_CURVE('',#99,#98,#59,.T.);
#116=EDGE_CURVE('',#96,#99,#60,.T.);
#117=EDGE_CURVE('',#100,#101,#61,.T.);
#118=EDGE_CURVE('',#101,#102,#62,.T.);
#119=EDGE_CURVE('',#103,#102,#63,.T.);
#120=EDGE_CURVE('',#100,#103,#64,.T.);
#121=EDGE_CURVE('',#97,#100,#65,.T.);
#122=EDGE_CURVE('',#98,#103,#66,.T.);
#123=EDGE_CURVE('',#101,#96,#67,.T.);
#124=EDGE_CURVE('',#102,#99,#68,.T.);
#125=ORIENTED_EDGE('',*,*,#104,.F.);
#126=ORIENTED_EDGE('',*,*,#105,.T.);
#127=ORIENTED_EDGE('',*,*,#106,.F.);
#128=ORIENTED_EDGE('',*,*,#105,.F.);
#129=ORIENTED_EDGE('',*,*,#104,.T.);
#130=ORIENTED_EDGE('',*,*,#107,.F.);
#131=ORIENTED_EDGE('',*,*,#108,.T.);
#132=ORIENTED_EDGE('',*,*,#109,.F.);
#133=ORIENTED_EDGE('',*,*,#108,.F.);
#134=ORIENTED_EDGE('',*,*,#110,.F.);
#135=ORIENTED_EDGE('',*,*,#111,.T.);
#136=ORIENTED_EDGE('',*,*,#112,.F.);
#137=ORIENTED_EDGE('',*,*,#111,.F.);
#138=ORIENTED_EDGE('',*,*,#110,.T.);
#139=ORIENTED_EDGE('',*,*,#107,.T.);
#140=ORIENTED_EDGE('',*,*,#113,.T.);
#141=ORIENTED_EDGE('',*,*,#114,.T.);
#142=ORIENTED_EDGE('',*,*,#115,.F.);
#143=ORIENTED_EDGE('',*,*,#116,.F.);
#144=ORIENTED_EDGE('',*,*,#112,.T.);
#145=ORIENTED_EDGE('',*,*,#117,.T.);
#146=ORIENTED_EDGE('',*,*,#118,.T.);
#147=ORIENTED_EDGE('',*,*,#119,.F.);
#148=ORIENTED_EDGE('',*,*,#120,.F.);
#149=ORIENTED_EDGE('',*,*,#121,.T.);
#150=ORIENTED_EDGE('',*,*,#120,.T.);
#151=ORIENTED_EDGE('',*,*,#122,.F.);
#152=ORIENTED_EDGE('',*,*,#114,.F.);
#153=ORIENTED_EDGE('',*,*,#109,.T.);
#154=ORIENTED_EDGE('',*,*,#123,.T.);
#155=ORIENTED_EDGE('',*,*,#116,.T.);
#156=ORIENTED_EDGE('',*,*,#124,.F.);
#157=ORIENTED_EDGE('',*,*,#118,.F.);
#158=ORIENTED_EDGE('',*,*,#124,.T.);
#159=ORIENTED_EDGE('',*,*,#115,.T.);
#160=ORIENTED_EDGE('',*,*,#122,.T.);
#161=ORIENTED_EDGE('',*,*,#119,.T.);
#162=ORIENTED_EDGE('',*,*,#123,.F.);
#163=ORIENTED_EDGE('',*,*,#117,.F.);
#164=ORIENTED_EDGE('',*,*,#121,.F.);
#165=ORIENTED_EDGE('',*,*,#113,.F.);
#166=ORIENTED_EDGE('',*,*,#106,.T.);
#167=CYLINDRICAL_SURFACE('',#196,0.4);
#168=CYLINDRICAL_SURFACE('',#200,1.3);
#169=CYLINDRICAL_SURFACE('',#203,2.);
#170=ADVANCED_FACE('',(#27),#167,.T.);
#171=ADVANCED_FACE('',(#28),#18,.T.);
#172=ADVANCED_FACE('',(#29),#168,.F.);
#173=ADVANCED_FACE('',(#30),#169,.T.);
#174=ADVANCED_FACE('',(#31,#15),#19,.T.);
#175=ADVANCED_FACE('',(#32,#16),#20,.T.);
#176=ADVANCED_FACE('',(#33),#21,.T.);
#177=ADVANCED_FACE('',(#34),#22,.T.);
#178=ADVANCED_FACE('',(#35),#23,.T.);
#179=ADVANCED_FACE('',(#36),#24,.T.);
#180=ADVANCED_FACE('',(#37),#25,.T.);
#181=ADVANCED_FACE('',(#38,#17),#26,.F.);
#182=CLOSED_SHELL('',(#170,#171,#172,#173,#174,#175,#176,#177,#178,#179,
#180,#181));
#183=DERIVED_UNIT_ELEMENT(#185,1.);
#184=DERIVED_UNIT_ELEMENT(#320,-3.);
#185=(
MASS_UNIT()
NAMED_UNIT(*)
SI_UNIT(.KILO.,.GRAM.)
);
#186=DERIVED_UNIT((#183,#184));
#187=MEASURE_REPRESENTATION_ITEM('density measure',
POSITIVE_RATIO_MEASURE(7850.),#186);
#188=PROPERTY_DEFINITION_REPRESENTATION(#193,#190);
#189=PROPERTY_DEFINITION_REPRESENTATION(#194,#191);
#190=REPRESENTATION('material name',(#192),#317);
#191=REPRESENTATION('density',(#187),#317);
#192=DESCRIPTIVE_REPRESENTATION_ITEM('Steel','Steel');
#193=PROPERTY_DEFINITION('material property','material name',#327);
#194=PROPERTY_DEFINITION('material property','density of part',#327);
#195=AXIS2_PLACEMENT_3D('placement',#267,#214,#215);
#196=AXIS2_PLACEMENT_3D('',#268,#216,#217);
#197=AXIS2_PLACEMENT_3D('',#270,#218,#219);
#198=AXIS2_PLACEMENT_3D('',#273,#221,#222);
#199=AXIS2_PLACEMENT_3D('',#274,#223,#224);
#200=AXIS2_PLACEMENT_3D('',#275,#225,#226);
#201=AXIS2_PLACEMENT_3D('',#277,#227,#228);
#202=AXIS2_PLACEMENT_3D('',#280,#230,#231);
#203=AXIS2_PLACEMENT_3D('',#281,#232,#233);
#204=AXIS2_PLACEMENT_3D('',#283,#234,#235);
#205=AXIS2_PLACEMENT_3D('',#286,#237,#238);
#206=AXIS2_PLACEMENT_3D('',#287,#239,#240);
#207=AXIS2_PLACEMENT_3D('',#288,#241,#242);
#208=AXIS2_PLACEMENT_3D('',#297,#247,#248);
#209=AXIS2_PLACEMENT_3D('',#306,#253,#254);
#210=AXIS2_PLACEMENT_3D('',#309,#257,#258);
#211=AXIS2_PLACEMENT_3D('',#310,#259,#260);
#212=AXIS2_PLACEMENT_3D('',#313,#263,#264);
#213=AXIS2_PLACEMENT_3D('',#314,#265,#266);
#214=DIRECTION('axis',(0.,0.,1.));
#215=DIRECTION('refdir',(1.,0.,0.));
#216=DIRECTION('center_axis',(0.,-1.,0.));
#217=DIRECTION('ref_axis',(1.,0.,0.));
#218=DIRECTION('center_axis',(0.,-1.,0.));
#219=DIRECTION('ref_axis',(1.,0.,0.));
#220=DIRECTION('',(0.,1.,0.));
#221=DIRECTION('center_axis',(0.,1.,0.));
#222=DIRECTION('ref_axis',(1.,0.,0.));
#223=DIRECTION('center_axis',(0.,-1.,0.));
#224=DIRECTION('ref_axis',(1.,0.,0.));
#225=DIRECTION('center_axis',(0.,0.,1.));
#226=DIRECTION('ref_axis',(1.,0.,0.));
#227=DIRECTION('center_axis',(0.,0.,-1.));
#228=DIRECTION('ref_axis',(1.,0.,0.));
#229=DIRECTION('',(0.,0.,-1.));
#230=DIRECTION('center_axis',(0.,0.,1.));
#231=DIRECTION('ref_axis',(1.,0.,0.));
#232=DIRECTION('center_axis',(0.,0.,1.));
#233=DIRECTION('ref_axis',(1.,0.,0.));
#234=DIRECTION('center_axis',(0.,0.,1.));
#235=DIRECTION('ref_axis',(1.,0.,0.));
#236=DIRECTION('',(0.,0.,-1.));
#237=DIRECTION('center_axis',(0.,0.,-1.));
#238=DIRECTION('ref_axis',(1.,0.,0.));
#239=DIRECTION('center_axis',(0.,0.,1.));
#240=DIRECTION('ref_axis',(1.,0.,0.));
#241=DIRECTION('center_axis',(0.,0.,1.));
#242=DIRECTION('ref_axis',(1.,0.,0.));
#243=DIRECTION('',(1.,0.,0.));
#244=DIRECTION('',(0.,1.,0.));
#245=DIRECTION('',(1.,0.,0.));
#246=DIRECTION('',(0.,1.,0.));
#247=DIRECTION('center_axis',(0.,0.,-1.));
#248=DIRECTION('ref_axis',(-1.,0.,0.));
#249=DIRECTION('',(-1.,0.,0.));
#250=DIRECTION('',(0.,1.,0.));
#251=DIRECTION('',(-1.,0.,0.));
#252=DIRECTION('',(0.,1.,0.));
#253=DIRECTION('center_axis',(1.,0.,0.));
#254=DIRECTION('ref_axis',(0.,0.,-1.));
#255=DIRECTION('',(0.,0.,-1.));
#256=DIRECTION('',(0.,0.,-1.));
#257=DIRECTION('center_axis',(0.,0.,1.));
#258=DIRECTION('ref_axis',(1.,0.,0.));
#259=DIRECTION('center_axis',(-1.,0.,0.));
#260=DIRECTION('ref_axis',(0.,0.,1.));
#261=DIRECTION('',(0.,0.,1.));
#262=DIRECTION('',(0.,0.,1.));
#263=DIRECTION('center_axis',(0.,1.,0.));
#264=DIRECTION('ref_axis',(0.,0.,1.));
#265=DIRECTION('center_axis',(0.,1.,0.));
#266=DIRECTION('ref_axis',(1.,0.,0.));
#267=CARTESIAN_POINT('',(0.,0.,0.));
#268=CARTESIAN_POINT('Origin',(2.55,0.,-3.5));
#269=CARTESIAN_POINT('',(2.15,-0.5,-3.5));
#270=CARTESIAN_POINT('Origin',(2.55,-0.5,-3.5));
#271=CARTESIAN_POINT('',(2.15,0.,-3.5));
#272=CARTESIAN_POINT('',(2.15,0.,-3.5));
#273=CARTESIAN_POINT('Origin',(2.55,0.,-3.5));
#274=CARTESIAN_POINT('Origin',(2.55,-0.5,-3.5));
#275=CARTESIAN_POINT('Origin',(2.55,2.55,0.));
#276=CARTESIAN_POINT('',(1.25,2.55,3.));
#277=CARTESIAN_POINT('Origin',(2.55,2.55,3.));
#278=CARTESIAN_POINT('',(1.25,2.55,0.));
#279=CARTESIAN_POINT('',(1.25,2.55,0.));
#280=CARTESIAN_POINT('Origin',(2.55,2.55,0.));
#281=CARTESIAN_POINT('Origin',(2.55,2.55,0.));
#282=CARTESIAN_POINT('',(0.55,2.55,3.));
#283=CARTESIAN_POINT('Origin',(2.55,2.55,3.));
#284=CARTESIAN_POINT('',(0.55,2.55,0.));
#285=CARTESIAN_POINT('',(0.55,2.55,0.));
#286=CARTESIAN_POINT('Origin',(2.55,2.55,0.));
#287=CARTESIAN_POINT('Origin',(2.55,2.55,3.));
#288=CARTESIAN_POINT('Origin',(0.,0.,0.));
#289=CARTESIAN_POINT('',(0.,0.,0.));
#290=CARTESIAN_POINT('',(5.1,0.,0.));
#291=CARTESIAN_POINT('',(0.,0.,0.));
#292=CARTESIAN_POINT('',(5.1,5.1,0.));
#293=CARTESIAN_POINT('',(5.1,0.,0.));
#294=CARTESIAN_POINT('',(0.,5.1,0.));
#295=CARTESIAN_POINT('',(0.,5.1,0.));
#296=CARTESIAN_POINT('',(0.,0.,0.));
#297=CARTESIAN_POINT('Origin',(5.1,0.,-8.));
#298=CARTESIAN_POINT('',(5.1,0.,-8.));
#299=CARTESIAN_POINT('',(0.,0.,-8.));
#300=CARTESIAN_POINT('',(5.1,0.,-8.));
#301=CARTESIAN_POINT('',(0.,5.1,-8.));
#302=CARTESIAN_POINT('',(0.,0.,-8.));
#303=CARTESIAN_POINT('',(5.1,5.1,-8.));
#304=CARTESIAN_POINT('',(5.1,5.1,-8.));
#305=CARTESIAN_POINT('',(5.1,0.,-8.));
#306=CARTESIAN_POINT('Origin',(5.1,0.,0.));
#307=CARTESIAN_POINT('',(5.1,0.,0.));
#308=CARTESIAN_POINT('',(5.1,5.1,0.));
#309=CARTESIAN_POINT('Origin',(0.,0.,0.));
#310=CARTESIAN_POINT('Origin',(0.,0.,-8.));
#311=CARTESIAN_POINT('',(0.,0.,-8.));
#312=CARTESIAN_POINT('',(0.,5.1,-8.));
#313=CARTESIAN_POINT('Origin',(2.55,5.1,-4.));
#314=CARTESIAN_POINT('Origin',(2.55,0.,-4.));
#315=UNCERTAINTY_MEASURE_WITH_UNIT(LENGTH_MEASURE(0.01),#319,
'DISTANCE_ACCURACY_VALUE',
'Maximum model space distance between geometric entities at asserted c
onnectivities');
#316=UNCERTAINTY_MEASURE_WITH_UNIT(LENGTH_MEASURE(0.01),#319,
'DISTANCE_ACCURACY_VALUE',
'Maximum model space distance between geometric entities at asserted c
onnectivities');
#317=(
GEOMETRIC_REPRESENTATION_CONTEXT(3)
GLOBAL_UNCERTAINTY_ASSIGNED_CONTEXT((#315))
GLOBAL_UNIT_ASSIGNED_CONTEXT((#319,#321,#322))
REPRESENTATION_CONTEXT('','3D')
);
#318=(
GEOMETRIC_REPRESENTATION_CONTEXT(3)
GLOBAL_UNCERTAINTY_ASSIGNED_CONTEXT((#316))
GLOBAL_UNIT_ASSIGNED_CONTEXT((#319,#321,#322))
REPRESENTATION_CONTEXT('','3D')
);
#319=(
LENGTH_UNIT()
NAMED_UNIT(*)
SI_UNIT(.MILLI.,.METRE.)
);
#320=(
LENGTH_UNIT()
NAMED_UNIT(*)
SI_UNIT($,.METRE.)
);
#321=(
NAMED_UNIT(*)
PLANE_ANGLE_UNIT()
SI_UNIT($,.RADIAN.)
);
#322=(
NAMED_UNIT(*)
SI_UNIT($,.STERADIAN.)
SOLID_ANGLE_UNIT()
);
#323=SHAPE_DEFINITION_REPRESENTATION(#324,#325);
#324=PRODUCT_DEFINITION_SHAPE('',$,#327);
#325=SHAPE_REPRESENTATION('',(#195),#317);
#326=PRODUCT_DEFINITION_CONTEXT('part definition',#331,'design');
#327=PRODUCT_DEFINITION('PJ-210A','PJ-210A v1',#328,#326);
#328=PRODUCT_DEFINITION_FORMATION('',$,#333);
#329=PRODUCT_RELATED_PRODUCT_CATEGORY('PJ-210A v1','PJ-210A v1',(#333));
#330=APPLICATION_PROTOCOL_DEFINITION('international standard',
'automotive_design',2009,#331);
#331=APPLICATION_CONTEXT(
'Core Data for Automotive Mechanical Design Process');
#332=PRODUCT_CONTEXT('part definition',#331,'mechanical');
#333=PRODUCT('PJ-210A','PJ-210A v1',$,(#332));
#334=PRESENTATION_STYLE_ASSIGNMENT((#335));
#335=SURFACE_STYLE_USAGE(.BOTH.,#336);
#336=SURFACE_SIDE_STYLE('',(#337));
#337=SURFACE_STYLE_FILL_AREA(#338);
#338=FILL_AREA_STYLE('Steel - Satin',(#339));
#339=FILL_AREA_STYLE_COLOUR('Steel - Satin',#340);
#340=COLOUR_RGB('Steel - Satin',0.627450980392157,0.627450980392157,0.627450980392157);
ENDSEC;
END-ISO-10303-21;
