(footprint "ST_WLCSP-100_Die452" (version 20221018) (generator pcbnew)
  (layer "F.Cu")
  (descr "WLCSP-100, 10x10 raster, 4.201x4.663mm package, pitch 0.4mm; see section 7.7 of http://www.st.com/resource/en/datasheet/DM00330506.pdf")
  (tags "BGA 100 0.4")
  (attr smd)
  (fp_text reference "REF**" (at 0 -3.3315) (layer "F.SilkS")
      (effects (font (size 1 1) (thickness 0.15)))
    (tstamp 147d76d1-94db-4ba2-b585-50abd53e8ceb)
  )
  (fp_text value "ST_WLCSP-100_Die452" (at 0 3.3315) (layer "F.Fab")
      (effects (font (size 1 1) (thickness 0.15)))
    (tstamp 3601a08f-4115-46bf-bc22-ff092b425f2e)
  )
  (fp_text user "${REFERENCE}" (at 0 0) (layer "F.Fab")
      (effects (font (size 0.98 0.98) (thickness 0.147)))
    (tstamp ee586bfc-23d7-4269-a323-a362d580f7d7)
  )
  (fp_line (start -2.2255 2.4565) (end -2.2255 -1.4565)
    (stroke (width 0.12) (type solid)) (layer "F.SilkS") (tstamp 7ba6f8fa-2aa0-45f6-8ce3-7584597cfe5e))
  (fp_line (start -1.2255 -2.4565) (end 2.2255 -2.4565)
    (stroke (width 0.12) (type solid)) (layer "F.SilkS") (tstamp efc346ae-227e-4bd8-a7dd-922ccf6409cd))
  (fp_line (start 2.2255 -2.4565) (end 2.2255 2.4565)
    (stroke (width 0.12) (type solid)) (layer "F.SilkS") (tstamp 28a7b668-3aa4-49a7-85c2-ac8dc577973d))
  (fp_line (start 2.2255 2.4565) (end -2.2255 2.4565)
    (stroke (width 0.12) (type solid)) (layer "F.SilkS") (tstamp 5bb1d590-dc92-47ff-a1f6-8db6094ef2c5))
  (fp_line (start -3.11 -3.34) (end -3.11 3.34)
    (stroke (width 0.05) (type solid)) (layer "F.CrtYd") (tstamp 51805c48-b573-49e1-b7da-e10620c05b29))
  (fp_line (start -3.11 3.34) (end 3.11 3.34)
    (stroke (width 0.05) (type solid)) (layer "F.CrtYd") (tstamp 2052209f-6a03-4743-b4d5-8b798502456a))
  (fp_line (start 3.11 -3.34) (end -3.11 -3.34)
    (stroke (width 0.05) (type solid)) (layer "F.CrtYd") (tstamp f95960bd-7d05-4d71-9333-05e3f0c830df))
  (fp_line (start 3.11 3.34) (end 3.11 -3.34)
    (stroke (width 0.05) (type solid)) (layer "F.CrtYd") (tstamp 21a355ff-575c-436f-b2ff-353a5d4c9278))
  (fp_line (start -2.1005 -1.3315) (end -1.1005 -2.3315)
    (stroke (width 0.1) (type solid)) (layer "F.Fab") (tstamp 2c521137-29f5-47f3-938e-5f5ee9e4b354))
  (fp_line (start -2.1005 2.3315) (end -2.1005 -1.3315)
    (stroke (width 0.1) (type solid)) (layer "F.Fab") (tstamp 52563ed5-5640-43df-9830-382c1ac55733))
  (fp_line (start -1.1005 -2.3315) (end 2.1005 -2.3315)
    (stroke (width 0.1) (type solid)) (layer "F.Fab") (tstamp 9375aa5c-91f4-407e-b101-5eead7b71553))
  (fp_line (start 2.1005 -2.3315) (end 2.1005 2.3315)
    (stroke (width 0.1) (type solid)) (layer "F.Fab") (tstamp 75b6152d-c1d3-43bd-a261-6cbd3da340d8))
  (fp_line (start 2.1005 2.3315) (end -2.1005 2.3315)
    (stroke (width 0.1) (type solid)) (layer "F.Fab") (tstamp 27b6a05c-2d94-4eb7-a81a-64ea50c72ca5))
  (pad "A1" smd circle (at -1.8 -1.8) (size 0.225 0.225) (layers "F.Cu" "F.Paste" "F.Mask") (tstamp 3980e401-cf81-4450-b73c-357ee0176075))
  (pad "A2" smd circle (at -1.4 -1.8) (size 0.225 0.225) (layers "F.Cu" "F.Paste" "F.Mask") (tstamp 408320c2-9b86-4a47-a193-87e147f417cf))
  (pad "A3" smd circle (at -1 -1.8) (size 0.225 0.225) (layers "F.Cu" "F.Paste" "F.Mask") (tstamp cd2177b8-ad97-40e2-bfa4-2e1159dbb4b0))
  (pad "A4" smd circle (at -0.6 -1.8) (size 0.225 0.225) (layers "F.Cu" "F.Paste" "F.Mask") (tstamp 6a52a749-caf9-4630-8ee2-b2583d2bceee))
  (pad "A5" smd circle (at -0.2 -1.8) (size 0.225 0.225) (layers "F.Cu" "F.Paste" "F.Mask") (tstamp 7bd63d08-e60d-41ca-9c03-5fcd3552328f))
  (pad "A6" smd circle (at 0.2 -1.8) (size 0.225 0.225) (layers "F.Cu" "F.Paste" "F.Mask") (tstamp 5fcc746b-2562-4837-a2b0-96560c1df776))
  (pad "A7" smd circle (at 0.6 -1.8) (size 0.225 0.225) (layers "F.Cu" "F.Paste" "F.Mask") (tstamp abfc86e3-5e76-45c1-90fa-7dc34956da2f))
  (pad "A8" smd circle (at 1 -1.8) (size 0.225 0.225) (layers "F.Cu" "F.Paste" "F.Mask") (tstamp 3df351f9-ddd2-4bbf-9f2e-432ff82677ba))
  (pad "A9" smd circle (at 1.4 -1.8) (size 0.225 0.225) (layers "F.Cu" "F.Paste" "F.Mask") (tstamp cf12f5ea-08a3-4a37-8572-fc7ac4fe7575))
  (pad "A10" smd circle (at 1.8 -1.8) (size 0.225 0.225) (layers "F.Cu" "F.Paste" "F.Mask") (tstamp 7c18a8c5-ed90-461c-bd3b-80ac76f9daa0))
  (pad "B1" smd circle (at -1.8 -1.4) (size 0.225 0.225) (layers "F.Cu" "F.Paste" "F.Mask") (tstamp 61ff4faf-fa7e-4b23-9501-0d1c9b0c447f))
  (pad "B2" smd circle (at -1.4 -1.4) (size 0.225 0.225) (layers "F.Cu" "F.Paste" "F.Mask") (tstamp 0886b96a-d770-4232-849f-08b9ef6646cc))
  (pad "B3" smd circle (at -1 -1.4) (size 0.225 0.225) (layers "F.Cu" "F.Paste" "F.Mask") (tstamp fe488a45-863b-4b69-b128-f1a56d8fbd28))
  (pad "B4" smd circle (at -0.6 -1.4) (size 0.225 0.225) (layers "F.Cu" "F.Paste" "F.Mask") (tstamp e4429e1c-b491-45cc-82de-c392d0c31c63))
  (pad "B5" smd circle (at -0.2 -1.4) (size 0.225 0.225) (layers "F.Cu" "F.Paste" "F.Mask") (tstamp 9154e56a-fd26-4eef-beb9-c2049051aef4))
  (pad "B6" smd circle (at 0.2 -1.4) (size 0.225 0.225) (layers "F.Cu" "F.Paste" "F.Mask") (tstamp 7b74f95a-4ade-49aa-8e3b-9eb235dd41a3))
  (pad "B7" smd circle (at 0.6 -1.4) (size 0.225 0.225) (layers "F.Cu" "F.Paste" "F.Mask") (tstamp 274fb1ef-9431-4836-8b2f-96a30b2f39b9))
  (pad "B8" smd circle (at 1 -1.4) (size 0.225 0.225) (layers "F.Cu" "F.Paste" "F.Mask") (tstamp 6476c321-c389-4db5-8d7f-e03553f1c64b))
  (pad "B9" smd circle (at 1.4 -1.4) (size 0.225 0.225) (layers "F.Cu" "F.Paste" "F.Mask") (tstamp 803c9732-2f19-4dac-b833-7c4bdcd4474f))
  (pad "B10" smd circle (at 1.8 -1.4) (size 0.225 0.225) (layers "F.Cu" "F.Paste" "F.Mask") (tstamp ffadbead-46a0-4b5c-9038-ca4c3e4cabda))
  (pad "C1" smd circle (at -1.8 -1) (size 0.225 0.225) (layers "F.Cu" "F.Paste" "F.Mask") (tstamp c084a377-9b69-487e-9d11-d9b645828cd0))
  (pad "C2" smd circle (at -1.4 -1) (size 0.225 0.225) (layers "F.Cu" "F.Paste" "F.Mask") (tstamp 067a0d9c-99ac-4e21-b905-535332087a4b))
  (pad "C3" smd circle (at -1 -1) (size 0.225 0.225) (layers "F.Cu" "F.Paste" "F.Mask") (tstamp c70899e2-55f5-4dd9-88ec-c2d3121cf99a))
  (pad "C4" smd circle (at -0.6 -1) (size 0.225 0.225) (layers "F.Cu" "F.Paste" "F.Mask") (tstamp 39016445-82ab-440d-9845-5bcdcc3bc36f))
  (pad "C5" smd circle (at -0.2 -1) (size 0.225 0.225) (layers "F.Cu" "F.Paste" "F.Mask") (tstamp 0155e765-bd49-4369-9015-33877a4fb15f))
  (pad "C6" smd circle (at 0.2 -1) (size 0.225 0.225) (layers "F.Cu" "F.Paste" "F.Mask") (tstamp 7ac16150-a34d-4df5-bb1e-1ada9da1ddfa))
  (pad "C7" smd circle (at 0.6 -1) (size 0.225 0.225) (layers "F.Cu" "F.Paste" "F.Mask") (tstamp 9f1ac71e-0b2e-4395-a964-55a2fb03f45e))
  (pad "C8" smd circle (at 1 -1) (size 0.225 0.225) (layers "F.Cu" "F.Paste" "F.Mask") (tstamp 5f04a7bd-e4f0-439b-9d58-60896b770415))
  (pad "C9" smd circle (at 1.4 -1) (size 0.225 0.225) (layers "F.Cu" "F.Paste" "F.Mask") (tstamp 708c20ca-f43c-41e0-af6b-96e3e91a46d7))
  (pad "C10" smd circle (at 1.8 -1) (size 0.225 0.225) (layers "F.Cu" "F.Paste" "F.Mask") (tstamp 24bec790-f946-4997-898a-eb6df8e5786e))
  (pad "D1" smd circle (at -1.8 -0.6) (size 0.225 0.225) (layers "F.Cu" "F.Paste" "F.Mask") (tstamp 566b77f5-07bd-43b5-9cb0-dd2544d6bc4a))
  (pad "D2" smd circle (at -1.4 -0.6) (size 0.225 0.225) (layers "F.Cu" "F.Paste" "F.Mask") (tstamp b21ee0f0-9d67-4ad8-b66e-cbaea4537a5a))
  (pad "D3" smd circle (at -1 -0.6) (size 0.225 0.225) (layers "F.Cu" "F.Paste" "F.Mask") (tstamp 34ebc4a9-c1b3-4bb5-80b9-e43be5daefb9))
  (pad "D4" smd circle (at -0.6 -0.6) (size 0.225 0.225) (layers "F.Cu" "F.Paste" "F.Mask") (tstamp 26f46e27-43e1-4e4c-81a6-7a77427afbba))
  (pad "D5" smd circle (at -0.2 -0.6) (size 0.225 0.225) (layers "F.Cu" "F.Paste" "F.Mask") (tstamp 5001c7e3-5a10-47ca-a65f-24e71018628e))
  (pad "D6" smd circle (at 0.2 -0.6) (size 0.225 0.225) (layers "F.Cu" "F.Paste" "F.Mask") (tstamp 2582398d-8845-418c-bcd8-ffa622b97228))
  (pad "D7" smd circle (at 0.6 -0.6) (size 0.225 0.225) (layers "F.Cu" "F.Paste" "F.Mask") (tstamp 6d51dc82-7c40-4f92-b583-41ffc68b7e94))
  (pad "D8" smd circle (at 1 -0.6) (size 0.225 0.225) (layers "F.Cu" "F.Paste" "F.Mask") (tstamp 36b33980-4748-44eb-a98a-916eb86f5a64))
  (pad "D9" smd circle (at 1.4 -0.6) (size 0.225 0.225) (layers "F.Cu" "F.Paste" "F.Mask") (tstamp 08481952-bf00-4fd3-b430-9215e915a215))
  (pad "D10" smd circle (at 1.8 -0.6) (size 0.225 0.225) (layers "F.Cu" "F.Paste" "F.Mask") (tstamp 91b66fb6-6c15-4319-8d87-e0f83bfe7bd3))
  (pad "E1" smd circle (at -1.8 -0.2) (size 0.225 0.225) (layers "F.Cu" "F.Paste" "F.Mask") (tstamp 40295a8f-a256-4ae5-87ba-711822559527))
  (pad "E2" smd circle (at -1.4 -0.2) (size 0.225 0.225) (layers "F.Cu" "F.Paste" "F.Mask") (tstamp c54e430f-2816-4af8-9d89-5243b2c35ca1))
  (pad "E3" smd circle (at -1 -0.2) (size 0.225 0.225) (layers "F.Cu" "F.Paste" "F.Mask") (tstamp b54bcac7-10e5-4a27-aa5a-8fc359100300))
  (pad "E4" smd circle (at -0.6 -0.2) (size 0.225 0.225) (layers "F.Cu" "F.Paste" "F.Mask") (tstamp c1699a25-d1d8-49c4-b143-d2a13cfdb842))
  (pad "E5" smd circle (at -0.2 -0.2) (size 0.225 0.225) (layers "F.Cu" "F.Paste" "F.Mask") (tstamp 46f1a6f4-00ba-4cff-b24a-41159cdc428d))
  (pad "E6" smd circle (at 0.2 -0.2) (size 0.225 0.225) (layers "F.Cu" "F.Paste" "F.Mask") (tstamp 7ca33707-2471-4b55-8d38-c1966287f0ab))
  (pad "E7" smd circle (at 0.6 -0.2) (size 0.225 0.225) (layers "F.Cu" "F.Paste" "F.Mask") (tstamp 0c24bda3-cbf4-444c-9a80-24dacac33d75))
  (pad "E8" smd circle (at 1 -0.2) (size 0.225 0.225) (layers "F.Cu" "F.Paste" "F.Mask") (tstamp 7124d6a8-0cc9-4132-966f-949b39e7a390))
  (pad "E9" smd circle (at 1.4 -0.2) (size 0.225 0.225) (layers "F.Cu" "F.Paste" "F.Mask") (tstamp c80886ff-78cc-480f-86ad-929f3d00f294))
  (pad "E10" smd circle (at 1.8 -0.2) (size 0.225 0.225) (layers "F.Cu" "F.Paste" "F.Mask") (tstamp 397d2bc8-d047-4b9c-9d5f-5b3008011617))
  (pad "F1" smd circle (at -1.8 0.2) (size 0.225 0.225) (layers "F.Cu" "F.Paste" "F.Mask") (tstamp 542ae7fb-58fb-4d02-83d7-c7ebb904a5b2))
  (pad "F2" smd circle (at -1.4 0.2) (size 0.225 0.225) (layers "F.Cu" "F.Paste" "F.Mask") (tstamp fec9db9a-185f-491e-aba6-e3e3f15644f1))
  (pad "F3" smd circle (at -1 0.2) (size 0.225 0.225) (layers "F.Cu" "F.Paste" "F.Mask") (tstamp 5b3930b6-b89d-4769-885c-5d61b876d963))
  (pad "F4" smd circle (at -0.6 0.2) (size 0.225 0.225) (layers "F.Cu" "F.Paste" "F.Mask") (tstamp 7d45ae8d-3da4-4057-99e2-4d594f53e7e9))
  (pad "F5" smd circle (at -0.2 0.2) (size 0.225 0.225) (layers "F.Cu" "F.Paste" "F.Mask") (tstamp 569f34a7-1577-4e2d-a012-77a4c04861d8))
  (pad "F6" smd circle (at 0.2 0.2) (size 0.225 0.225) (layers "F.Cu" "F.Paste" "F.Mask") (tstamp 76eeb1e9-c75d-407c-81bf-419d78201977))
  (pad "F7" smd circle (at 0.6 0.2) (size 0.225 0.225) (layers "F.Cu" "F.Paste" "F.Mask") (tstamp 727a90fd-7814-4172-8cf3-8421dfb215f2))
  (pad "F8" smd circle (at 1 0.2) (size 0.225 0.225) (layers "F.Cu" "F.Paste" "F.Mask") (tstamp ab284cee-f32e-43da-a012-5c4a5b668afc))
  (pad "F9" smd circle (at 1.4 0.2) (size 0.225 0.225) (layers "F.Cu" "F.Paste" "F.Mask") (tstamp 77addbdd-8c8d-45c4-907a-fd4530686bdc))
  (pad "F10" smd circle (at 1.8 0.2) (size 0.225 0.225) (layers "F.Cu" "F.Paste" "F.Mask") (tstamp 028ffb97-f70a-4a6c-a30b-db576788aa86))
  (pad "G1" smd circle (at -1.8 0.6) (size 0.225 0.225) (layers "F.Cu" "F.Paste" "F.Mask") (tstamp d5df3e78-aca4-4cac-8813-f5a8e69bfb48))
  (pad "G2" smd circle (at -1.4 0.6) (size 0.225 0.225) (layers "F.Cu" "F.Paste" "F.Mask") (tstamp 398df88e-aefe-4d7e-a034-f1489b14efdb))
  (pad "G3" smd circle (at -1 0.6) (size 0.225 0.225) (layers "F.Cu" "F.Paste" "F.Mask") (tstamp d07eb3b5-3152-4420-ac4f-28bcb9e30ab2))
  (pad "G4" smd circle (at -0.6 0.6) (size 0.225 0.225) (layers "F.Cu" "F.Paste" "F.Mask") (tstamp 69e7def5-d26b-49dc-b68a-d7bce5b89384))
  (pad "G5" smd circle (at -0.2 0.6) (size 0.225 0.225) (layers "F.Cu" "F.Paste" "F.Mask") (tstamp 38c810e4-e198-4f33-a48d-78f66012c3c6))
  (pad "G6" smd circle (at 0.2 0.6) (size 0.225 0.225) (layers "F.Cu" "F.Paste" "F.Mask") (tstamp e055db9a-cad4-4206-a60a-43d042cbf135))
  (pad "G7" smd circle (at 0.6 0.6) (size 0.225 0.225) (layers "F.Cu" "F.Paste" "F.Mask") (tstamp 940a9b4a-3d20-4535-bc4a-72fe8afa57f5))
  (pad "G8" smd circle (at 1 0.6) (size 0.225 0.225) (layers "F.Cu" "F.Paste" "F.Mask") (tstamp 973ba1c9-1e1f-434c-912f-6f8d4ada5e47))
  (pad "G9" smd circle (at 1.4 0.6) (size 0.225 0.225) (layers "F.Cu" "F.Paste" "F.Mask") (tstamp 7ff85e1a-2b88-40cc-acac-7147c6b7deb0))
  (pad "G10" smd circle (at 1.8 0.6) (size 0.225 0.225) (layers "F.Cu" "F.Paste" "F.Mask") (tstamp 0da12451-29a8-4459-b235-ec5017d19a7c))
  (pad "H1" smd circle (at -1.8 1) (size 0.225 0.225) (layers "F.Cu" "F.Paste" "F.Mask") (tstamp b561bdef-0ea7-43fa-94bc-1435e842b272))
  (pad "H2" smd circle (at -1.4 1) (size 0.225 0.225) (layers "F.Cu" "F.Paste" "F.Mask") (tstamp 8548f218-7eae-43cf-a24a-3dac2cc96050))
  (pad "H3" smd circle (at -1 1) (size 0.225 0.225) (layers "F.Cu" "F.Paste" "F.Mask") (tstamp ed68770b-7a25-4c77-b8aa-2ddc2735cd57))
  (pad "H4" smd circle (at -0.6 1) (size 0.225 0.225) (layers "F.Cu" "F.Paste" "F.Mask") (tstamp e914d722-2637-4801-96e9-4238dee6c852))
  (pad "H5" smd circle (at -0.2 1) (size 0.225 0.225) (layers "F.Cu" "F.Paste" "F.Mask") (tstamp 7e20b996-fecd-47a2-a782-a662049a012c))
  (pad "H6" smd circle (at 0.2 1) (size 0.225 0.225) (layers "F.Cu" "F.Paste" "F.Mask") (tstamp 0b9c56d3-cfd7-49a5-bcc1-d7676f285e43))
  (pad "H7" smd circle (at 0.6 1) (size 0.225 0.225) (layers "F.Cu" "F.Paste" "F.Mask") (tstamp 75a06b13-95ff-43b1-b4dd-e2cf44d4ed39))
  (pad "H8" smd circle (at 1 1) (size 0.225 0.225) (layers "F.Cu" "F.Paste" "F.Mask") (tstamp c9eaf227-e741-4fc0-93b5-81820f8c88df))
  (pad "H9" smd circle (at 1.4 1) (size 0.225 0.225) (layers "F.Cu" "F.Paste" "F.Mask") (tstamp 558cf77c-4731-4e71-9c04-e4d0d0e1d547))
  (pad "H10" smd circle (at 1.8 1) (size 0.225 0.225) (layers "F.Cu" "F.Paste" "F.Mask") (tstamp 470bd1d5-6936-499b-a538-fdd2e576d545))
  (pad "J1" smd circle (at -1.8 1.4) (size 0.225 0.225) (layers "F.Cu" "F.Paste" "F.Mask") (tstamp 0babf0ba-f264-4ff8-85ac-73a4e9a1b65a))
  (pad "J2" smd circle (at -1.4 1.4) (size 0.225 0.225) (layers "F.Cu" "F.Paste" "F.Mask") (tstamp 29c95caa-ab21-48ff-926a-f3aeef4d3e4f))
  (pad "J3" smd circle (at -1 1.4) (size 0.225 0.225) (layers "F.Cu" "F.Paste" "F.Mask") (tstamp 849351e1-6d84-49c4-85dd-11e9715a53b2))
  (pad "J4" smd circle (at -0.6 1.4) (size 0.225 0.225) (layers "F.Cu" "F.Paste" "F.Mask") (tstamp 57e0f878-1f9f-41ac-b07f-f0522f4209f9))
  (pad "J5" smd circle (at -0.2 1.4) (size 0.225 0.225) (layers "F.Cu" "F.Paste" "F.Mask") (tstamp ce9ba42d-d724-4a94-9b38-c22339e9161c))
  (pad "J6" smd circle (at 0.2 1.4) (size 0.225 0.225) (layers "F.Cu" "F.Paste" "F.Mask") (tstamp 01de6a96-fea9-42a4-87e9-bc21c4a321f0))
  (pad "J7" smd circle (at 0.6 1.4) (size 0.225 0.225) (layers "F.Cu" "F.Paste" "F.Mask") (tstamp c5ee537f-3b2d-4e10-a205-31c7729b27cd))
  (pad "J8" smd circle (at 1 1.4) (size 0.225 0.225) (layers "F.Cu" "F.Paste" "F.Mask") (tstamp 3242d2bf-0b3a-41c2-adda-76e5ae700f3d))
  (pad "J9" smd circle (at 1.4 1.4) (size 0.225 0.225) (layers "F.Cu" "F.Paste" "F.Mask") (tstamp f5de6d5f-9ddd-4f94-aed9-bc861fd5e375))
  (pad "J10" smd circle (at 1.8 1.4) (size 0.225 0.225) (layers "F.Cu" "F.Paste" "F.Mask") (tstamp d8347a1b-58d9-4de1-aff9-438a081d7a20))
  (pad "K1" smd circle (at -1.8 1.8) (size 0.225 0.225) (layers "F.Cu" "F.Paste" "F.Mask") (tstamp f69f57ea-bb6c-4010-8104-5f109dcee1ac))
  (pad "K2" smd circle (at -1.4 1.8) (size 0.225 0.225) (layers "F.Cu" "F.Paste" "F.Mask") (tstamp dc506b1a-a411-4a76-9927-d5224d844de0))
  (pad "K3" smd circle (at -1 1.8) (size 0.225 0.225) (layers "F.Cu" "F.Paste" "F.Mask") (tstamp 53a9cfa8-3ebf-4b02-99cf-db082170beff))
  (pad "K4" smd circle (at -0.6 1.8) (size 0.225 0.225) (layers "F.Cu" "F.Paste" "F.Mask") (tstamp af0ca9ee-4bfd-4199-8022-899a59a3ef25))
  (pad "K5" smd circle (at -0.2 1.8) (size 0.225 0.225) (layers "F.Cu" "F.Paste" "F.Mask") (tstamp ac00e695-a7b7-4e5e-84bb-e2c75bc64b26))
  (pad "K6" smd circle (at 0.2 1.8) (size 0.225 0.225) (layers "F.Cu" "F.Paste" "F.Mask") (tstamp 76ecc929-2246-4541-9aa1-f07018555f22))
  (pad "K7" smd circle (at 0.6 1.8) (size 0.225 0.225) (layers "F.Cu" "F.Paste" "F.Mask") (tstamp d7866bf2-876b-4dfa-b262-f506f732b9d6))
  (pad "K8" smd circle (at 1 1.8) (size 0.225 0.225) (layers "F.Cu" "F.Paste" "F.Mask") (tstamp 0c94fcb3-6cf4-4cd1-a104-bac374cb5d22))
  (pad "K9" smd circle (at 1.4 1.8) (size 0.225 0.225) (layers "F.Cu" "F.Paste" "F.Mask") (tstamp c83a92f4-8609-4d4d-a768-0ad6e69d37f6))
  (pad "K10" smd circle (at 1.8 1.8) (size 0.225 0.225) (layers "F.Cu" "F.Paste" "F.Mask") (tstamp 51c5b347-8dd6-4d46-ad8a-f6bebd0f4062))
  (model "${KICAD6_3DMODEL_DIR}/Package_CSP.3dshapes/ST_WLCSP-100_Die452.wrl"
    (offset (xyz 0 0 0))
    (scale (xyz 1 1 1))
    (rotate (xyz 0 0 0))
  )
)
